Data/T1/Trace50.csv

Record Length,2500,Points,50.03999919E-3,74.880003929E-3,
Sample Interval,3.99999999E-6,s,50.04400015E-3,62.399998307E-3,
Trigger Point,-12.5100004E3,Samples,50.04799739E-3,99.840000272E-3,
,,,50.05199835E-3,62.399998307E-3,
,,,50.05599931E-3,74.880003929E-3,
,,,50.06000027E-3,62.399998307E-3,
Source,CH1,,50.06399751E-3,49.92000014E-3,
Vertical Units,Volts,,50.06799847E-3,62.399998307E-3,
Vertical Scale,312.00000085E-3,,50.07199943E-3,74.880003929E-3,
Vertical Offset,0,,50.07600039E-3,62.399998307E-3,
Horizontal Units,s,,50.07999763E-3,87.360002100E-3,
Horizontal Scale,1.000000E-3,,50.08399859E-3,87.360002100E-3,
Pt Fmt,Y,,50.08799955E-3,74.880003929E-3,
Yzero,-3.44000000,,50.09200051E-3,74.880003929E-3,
Probe Atten,1.000000,,50.09599775E-3,87.360002100E-3,
,,,50.09999871E-3,74.880003929E-3,
Note,TBS 1052B - 15:43:13   05/04/2019,,50.10399967E-3,74.880003929E-3,
,,,50.10800064E-3,62.399998307E-3,
,,,50.11199787E-3,87.360002100E-3,
,,,50.11599883E-3,87.360002100E-3,
,,,50.11999980E-3,87.360002100E-3,
,,,50.12400076E-3,62.399998307E-3,
,,,50.12799799E-3,74.880003929E-3,
,,,50.13199896E-3,74.880003929E-3,
,,,50.13599992E-3,62.399998307E-3,
,,,50.14000088E-3,87.360002100E-3,
,,,50.14399812E-3,74.880003929E-3,
,,,50.14799908E-3,87.360002100E-3,
,,,50.15200004E-3,74.880003929E-3,
,,,50.15600100E-3,62.399998307E-3,
,,,50.15999824E-3,74.880003929E-3,
,,,50.16399920E-3,99.840000272E-3,
,,,50.16800016E-3,99.840000272E-3,
,,,50.17199740E-3,87.360002100E-3,
,,,50.17599836E-3,99.840000272E-3,
,,,50.17999932E-3,112.3199984E-3,
,,,50.18400028E-3,99.840000272E-3,
,,,50.18799752E-3,99.840000272E-3,
,,,50.19199848E-3,99.840000272E-3,
,,,50.19599944E-3,99.840000272E-3,
,,,50.20000041E-3,87.360002100E-3,
,,,50.20399764E-3,87.360002100E-3,
,,,50.20799860E-3,62.399998307E-3,
,,,50.21199957E-3,62.399998307E-3,
,,,50.21600053E-3,87.360002100E-3,
,,,50.21999776E-3,74.880003929E-3,
,,,50.22399873E-3,62.399998307E-3,
,,,50.22799969E-3,87.360002100E-3,
,,,50.23200065E-3,74.880003929E-3,
,,,50.23599789E-3,87.360002100E-3,
,,,50.23999885E-3,74.880003929E-3,
,,,50.24399981E-3,87.360002100E-3,
,,,50.24800077E-3,74.880003929E-3,
,,,50.25199801E-3,74.880003929E-3,
,,,50.25599897E-3,62.399998307E-3,
,,,50.25999993E-3,62.399998307E-3,
,,,50.26400089E-3,87.360002100E-3,
,,,50.26799813E-3,62.399998307E-3,
,,,50.27199909E-3,62.399998307E-3,
,,,50.27600005E-3,74.880003929E-3,
,,,50.28000101E-3,74.880003929E-3,
,,,50.28399825E-3,62.399998307E-3,
,,,50.28799921E-3,87.360002100E-3,
,,,50.29200017E-3,74.880003929E-3,
,,,50.29599741E-3,87.360002100E-3,
,,,50.29999837E-3,74.880003929E-3,
,,,50.30399933E-3,87.360002100E-3,
,,,50.30800030E-3,99.840000272E-3,
,,,50.31199753E-3,74.880003929E-3,
,,,50.31599849E-3,74.880003929E-3,
,,,50.31999946E-3,74.880003929E-3,
,,,50.32400042E-3,87.360002100E-3,
,,,50.32799765E-3,99.840000272E-3,
,,,50.33199862E-3,112.3199984E-3,
,,,50.33599958E-3,99.840000272E-3,
,,,50.34000054E-3,87.360002100E-3,
,,,50.34399778E-3,87.360002100E-3,
,,,50.34799874E-3,74.880003929E-3,
,,,50.35199970E-3,87.360002100E-3,
,,,50.35600066E-3,87.360002100E-3,
,,,50.35999790E-3,62.399998307E-3,
,,,50.36399886E-3,62.399998307E-3,
,,,50.36799982E-3,74.880003929E-3,
,,,50.37200078E-3,99.840000272E-3,
,,,50.37599802E-3,74.880003929E-3,
,,,50.37999898E-3,74.880003929E-3,
,,,50.38399994E-3,49.92000014E-3,
,,,50.38800091E-3,62.399998307E-3,
,,,50.39199814E-3,62.399998307E-3,
,,,50.39599910E-3,74.880003929E-3,
,,,50.40000007E-3,62.399998307E-3,
,,,50.40400103E-3,74.880003929E-3,
,,,50.40799826E-3,62.399998307E-3,
,,,50.41199923E-3,62.399998307E-3,
,,,50.41600019E-3,74.880003929E-3,
,,,50.41999742E-3,74.880003929E-3,
,,,50.42399839E-3,74.880003929E-3,
,,,50.42799935E-3,74.880003929E-3,
,,,50.43200031E-3,62.399998307E-3,
,,,50.43599755E-3,62.399998307E-3,
,,,50.43999851E-3,49.92000014E-3,
,,,50.44399947E-3,62.399998307E-3,
,,,50.44800043E-3,87.360002100E-3,
,,,50.45199767E-3,99.840000272E-3,
,,,50.45599863E-3,74.880003929E-3,
,,,50.45999959E-3,87.360002100E-3,
,,,50.46400055E-3,87.360002100E-3,
,,,50.46799779E-3,74.880003929E-3,
,,,50.47199875E-3,62.399998307E-3,
,,,50.47599971E-3,62.399998307E-3,
,,,50.48000067E-3,62.399998307E-3,
,,,50.48399791E-3,74.880003929E-3,
,,,50.48799887E-3,74.880003929E-3,
,,,50.49199983E-3,74.880003929E-3,
,,,50.49600080E-3,74.880003929E-3,
,,,50.49999803E-3,87.360002100E-3,
,,,50.50399899E-3,99.840000272E-3,
,,,50.50799996E-3,99.840000272E-3,
,,,50.51200092E-3,74.880003929E-3,
,,,50.51599815E-3,87.360002100E-3,
,,,50.51999912E-3,87.360002100E-3,
,,,50.52400008E-3,87.360002100E-3,
,,,50.52800104E-3,99.840000272E-3,
,,,50.53199828E-3,87.360002100E-3,
,,,50.53599924E-3,87.360002100E-3,
,,,50.54000020E-3,62.399998307E-3,
,,,50.54399744E-3,62.399998307E-3,
,,,50.54799840E-3,74.880003929E-3,
,,,50.55199936E-3,112.3199984E-3,
,,,50.55600032E-3,87.360002100E-3,
,,,50.55999756E-3,87.360002100E-3,
,,,50.56399852E-3,87.360002100E-3,
,,,50.56799948E-3,87.360002100E-3,
,,,50.57200044E-3,87.360002100E-3,
,,,50.57599768E-3,74.880003929E-3,
,,,50.57999864E-3,99.840000272E-3,
,,,50.58399960E-3,112.3199984E-3,
,,,50.58800057E-3,124.7999966E-3,
,,,50.59199780E-3,112.3199984E-3,
,,,50.59599876E-3,124.7999966E-3,
,,,50.59999973E-3,124.7999966E-3,
,,,50.60400069E-3,124.7999966E-3,
,,,50.60799792E-3,112.3199984E-3,
,,,50.61199889E-3,99.840000272E-3,
,,,50.61599985E-3,99.840000272E-3,
,,,50.62000081E-3,87.360002100E-3,
,,,50.62399805E-3,74.880003929E-3,
,,,50.62799901E-3,87.360002100E-3,
,,,50.63199997E-3,62.399998307E-3,
,,,50.63600093E-3,49.92000014E-3,
,,,50.63999817E-3,49.92000014E-3,
,,,50.64399913E-3,62.399998307E-3,
,,,50.64800009E-3,62.399998307E-3,
,,,50.65199733E-3,74.880003929E-3,
,,,50.65599829E-3,87.360002100E-3,
,,,50.65999925E-3,74.880003929E-3,
,,,50.66400021E-3,74.880003929E-3,
,,,50.66799745E-3,87.360002100E-3,
,,,50.67199841E-3,74.880003929E-3,
,,,50.67599937E-3,74.880003929E-3,
,,,50.68000033E-3,87.360002100E-3,
,,,50.68399757E-3,62.399998307E-3,
,,,50.68799853E-3,74.880003929E-3,
,,,50.69199950E-3,49.92000014E-3,
,,,50.69600046E-3,74.880003929E-3,
,,,50.69999769E-3,74.880003929E-3,
,,,50.70399866E-3,62.399998307E-3,
,,,50.70799962E-3,62.399998307E-3,
,,,50.71200058E-3,74.880003929E-3,
,,,50.71599782E-3,87.360002100E-3,
,,,50.71999878E-3,87.360002100E-3,
,,,50.72399974E-3,99.840000272E-3,
,,,50.72800070E-3,74.880003929E-3,
,,,50.73199794E-3,87.360002100E-3,
,,,50.73599890E-3,74.880003929E-3,
,,,50.73999986E-3,74.880003929E-3,
,,,50.74400082E-3,74.880003929E-3,
,,,50.74799806E-3,74.880003929E-3,
,,,50.75199902E-3,62.399998307E-3,
,,,50.75599998E-3,87.360002100E-3,
,,,50.76000094E-3,74.880003929E-3,
,,,50.76399818E-3,74.880003929E-3,
,,,50.76799914E-3,62.399998307E-3,
,,,50.77200010E-3,87.360002100E-3,
,,,50.77599734E-3,87.360002100E-3,
,,,50.77999830E-3,74.880003929E-3,
,,,50.78399926E-3,99.840000272E-3,
,,,50.78800023E-3,99.840000272E-3,
,,,50.79199746E-3,99.840000272E-3,
,,,50.79599842E-3,112.3199984E-3,
,,,50.79999939E-3,99.840000272E-3,
,,,50.80400035E-3,99.840000272E-3,
,,,50.80799758E-3,87.360002100E-3,
,,,50.81199855E-3,87.360002100E-3,
,,,50.81599951E-3,74.880003929E-3,
,,,50.82000047E-3,87.360002100E-3,
,,,50.82399771E-3,62.399998307E-3,
,,,50.82799867E-3,74.880003929E-3,
,,,50.83199963E-3,74.880003929E-3,
,,,50.83600059E-3,99.840000272E-3,
,,,50.83999783E-3,87.360002100E-3,
,,,50.84399879E-3,99.840000272E-3,
,,,50.84799975E-3,74.880003929E-3,
,,,50.85200071E-3,74.880003929E-3,
,,,50.85599795E-3,74.880003929E-3,
,,,50.85999891E-3,99.840000272E-3,
,,,50.86399987E-3,87.360002100E-3,
,,,50.86800084E-3,74.880003929E-3,
,,,50.87199807E-3,87.360002100E-3,
,,,50.87599903E-3,99.840000272E-3,
,,,50.88000000E-3,99.840000272E-3,
,,,50.88400096E-3,87.360002100E-3,
,,,50.88799819E-3,74.880003929E-3,
,,,50.89199916E-3,74.880003929E-3,
,,,50.89600012E-3,87.360002100E-3,
,,,50.89999735E-3,87.360002100E-3,
,,,50.90399832E-3,87.360002100E-3,
,,,50.90799928E-3,62.399998307E-3,
,,,50.91200024E-3,74.880003929E-3,
,,,50.91599748E-3,74.880003929E-3,
,,,50.91999844E-3,74.880003929E-3,
,,,50.92399940E-3,74.880003929E-3,
,,,50.92800036E-3,74.880003929E-3,
,,,50.93199760E-3,74.880003929E-3,
,,,50.93599856E-3,74.880003929E-3,
,,,50.93999952E-3,74.880003929E-3,
,,,50.94400048E-3,62.399998307E-3,
,,,50.94799772E-3,62.399998307E-3,
,,,50.95199868E-3,74.880003929E-3,
,,,50.95599964E-3,62.399998307E-3,
,,,50.96000060E-3,62.399998307E-3,
,,,50.96399784E-3,62.399998307E-3,
,,,50.96799880E-3,62.399998307E-3,
,,,50.97199976E-3,74.880003929E-3,
,,,50.97600073E-3,62.399998307E-3,
,,,50.97999796E-3,62.399998307E-3,
,,,50.98399892E-3,74.880003929E-3,
,,,50.98799989E-3,74.880003929E-3,
,,,50.99200085E-3,74.880003929E-3,
,,,50.99599808E-3,74.880003929E-3,
,,,50.99999905E-3,74.880003929E-3,
,,,51.00400001E-3,49.92000014E-3,
,,,51.00800097E-3,37.44000196E-3,
,,,51.01199821E-3,12.4800000E-3,
,,,51.01599917E-3,12.4800000E-3,
,,,51.02000013E-3,0.0,
,,,51.02399737E-3,0.0,
,,,51.02799833E-3,0.0,
,,,51.03199929E-3,99.840000272E-3,
,,,51.03600025E-3,673.919975758E-3,
,,,51.03999749E-3,1.1232001,
,,,51.04399845E-3,1.4102401,
,,,51.04799941E-3,1.6099200,
,,,51.05200037E-3,1.7222400,
,,,51.05599761E-3,1.8096000,
,,,51.05999857E-3,1.8969600,
,,,51.06399953E-3,1.8969600,
,,,51.06800050E-3,1.9219201,
,,,51.07199773E-3,1.9219201,
,,,51.07599869E-3,1.9219201,
,,,51.07999966E-3,1.9344000,
,,,51.08400062E-3,1.9593600,
,,,51.08799785E-3,1.9468800,
,,,51.09199882E-3,1.9219201,
,,,51.09599978E-3,1.9468800,
,,,51.10000074E-3,1.9344000,
,,,51.10399798E-3,1.9468800,
,,,51.10799894E-3,1.9468800,
,,,51.11199990E-3,1.9344000,
,,,51.11600086E-3,1.9219201,
,,,51.11999810E-3,1.9219201,
,,,51.12399906E-3,1.9219201,
,,,51.12800002E-3,1.9344000,
,,,51.13200098E-3,1.9593600,
,,,51.13599822E-3,1.9593600,
,,,51.13999918E-3,1.9468800,
,,,51.14400014E-3,1.9344000,
,,,51.14799738E-3,1.9468800,
,,,51.15199834E-3,1.9344000,
,,,51.15599930E-3,1.9344000,
,,,51.16000026E-3,1.9344000,
,,,51.16399750E-3,1.9468800,
,,,51.16799846E-3,1.9468800,
,,,51.17199942E-3,1.9718400,
,,,51.17600039E-3,1.9593600,
,,,51.17999762E-3,1.9718400,
,,,51.18399858E-3,1.9219201,
,,,51.18799955E-3,1.9094400,
,,,51.19200051E-3,1.9344000,
,,,51.19599774E-3,1.9219201,
,,,51.19999871E-3,1.9219201,
,,,51.20399967E-3,1.9094400,
,,,51.20800063E-3,1.8969600,
,,,51.21199787E-3,1.8969600,
,,,51.21599883E-3,1.8969600,
,,,51.21999979E-3,1.8969600,
,,,51.22400075E-3,1.9094400,
,,,51.22799799E-3,1.8969600,
,,,51.23199895E-3,1.8720000,
,,,51.23599991E-3,1.8969600,
,,,51.24000087E-3,1.8844800,
,,,51.24399811E-3,1.8595200,
,,,51.24799907E-3,1.8844800,
,,,51.25200003E-3,1.8844800,
,,,51.25600100E-3,1.8969600,
,,,51.25999823E-3,1.8969600,
,,,51.26399919E-3,1.8720000,
,,,51.26800016E-3,1.9094400,
,,,51.27199739E-3,1.8844800,
,,,51.27599835E-3,1.8844800,
,,,51.27999932E-3,1.9094400,
,,,51.28400028E-3,1.9094400,
,,,51.28799751E-3,1.9094400,
,,,51.29199848E-3,1.9094400,
,,,51.29599944E-3,1.8720000,
,,,51.30000040E-3,1.8844800,
,,,51.30399764E-3,1.8844800,
,,,51.30799860E-3,1.8720000,
,,,51.31199956E-3,1.8720000,
,,,51.31600052E-3,1.8595200,
,,,51.31999776E-3,1.8345600,
,,,51.32399872E-3,1.8595200,
,,,51.32799968E-3,1.8345600,
,,,51.33200064E-3,1.8470401,
,,,51.33599788E-3,1.8595200,
,,,51.33999884E-3,1.8470401,
,,,51.34399980E-3,1.8595200,
,,,51.34800076E-3,1.8345600,
,,,51.35199800E-3,1.8470401,
,,,51.35599896E-3,1.8470401,
,,,51.35999992E-3,1.8595200,
,,,51.36400089E-3,1.8345600,
,,,51.36799812E-3,1.8220800,
,,,51.37199908E-3,1.8220800,
,,,51.37600005E-3,1.8345600,
,,,51.38000101E-3,1.8096000,
,,,51.38399825E-3,1.8220800,
,,,51.38799921E-3,1.8345600,
,,,51.39200017E-3,1.8470401,
,,,51.39599741E-3,1.8220800,
,,,51.39999837E-3,1.7971200,
,,,51.40399933E-3,1.7971200,
,,,51.40800029E-3,1.7971200,
,,,51.41199753E-3,1.8096000,
,,,51.41599849E-3,1.8220800,
,,,51.41999945E-3,1.8220800,
,,,51.42400041E-3,1.7971200,
,,,51.42799765E-3,1.7971200,
,,,51.43199861E-3,1.7971200,
,,,51.43599957E-3,1.8096000,
,,,51.44000053E-3,1.8096000,
,,,51.44399777E-3,1.8096000,
,,,51.44799873E-3,1.8096000,
,,,51.45199969E-3,1.7971200,
,,,51.45600066E-3,1.7971200,
,,,51.45999789E-3,1.7846400,
,,,51.46399885E-3,1.7971200,
,,,51.46799982E-3,1.7846400,
,,,51.47200078E-3,1.7721601,
,,,51.47599801E-3,1.7971200,
,,,51.47999898E-3,1.7596800,
,,,51.48399994E-3,1.7596800,
,,,51.48800090E-3,1.7472000,
,,,51.49199814E-3,1.7472000,
,,,51.49599910E-3,1.7721601,
,,,51.50000006E-3,1.7721601,
,,,51.50400102E-3,1.7721601,
,,,51.50799826E-3,1.7721601,
,,,51.51199922E-3,1.7721601,
,,,51.51600018E-3,1.7596800,
,,,51.51999742E-3,1.7472000,
,,,51.52399838E-3,1.7222400,
,,,51.52799934E-3,1.7472000,
,,,51.53200030E-3,1.7347200,
,,,51.53599754E-3,1.7222400,
,,,51.53999850E-3,1.7222400,
,,,51.54399946E-3,1.7097600,
,,,51.54800043E-3,1.7222400,
,,,51.55199766E-3,1.6972800,
,,,51.55599862E-3,1.6848000,
,,,51.55999959E-3,1.6723200,
,,,51.56400055E-3,1.6598400,
,,,51.56799778E-3,1.6723200,
,,,51.57199875E-3,1.6848000,
,,,51.57599971E-3,1.6848000,
,,,51.58000067E-3,1.6848000,
,,,51.58399791E-3,1.6972800,
,,,51.58799887E-3,1.7097600,
,,,51.59199983E-3,1.6972800,
,,,51.59600079E-3,1.6848000,
,,,51.59999803E-3,1.6848000,
,,,51.60399899E-3,1.6723200,
,,,51.60799995E-3,1.6598400,
,,,51.61200091E-3,1.6598400,
,,,51.61599815E-3,1.6723200,
,,,51.61999911E-3,1.6848000,
,,,51.62400007E-3,1.6473600,
,,,51.62800103E-3,1.6348799,
,,,51.63199827E-3,1.6473600,
,,,51.63599923E-3,1.6473600,
,,,51.64000019E-3,1.6348799,
,,,51.64399743E-3,1.6224000,
,,,51.64799839E-3,1.6224000,
,,,51.65199935E-3,1.5849600,
,,,51.65600032E-3,1.6224000,
,,,51.65999755E-3,1.5974400,
,,,51.66399851E-3,1.6224000,
,,,51.66799948E-3,1.6473600,
,,,51.67200044E-3,1.6348799,
,,,51.67599767E-3,1.6224000,
,,,51.67999864E-3,1.6099200,
,,,51.68399960E-3,1.5974400,
,,,51.68800056E-3,1.5849600,
,,,51.69199780E-3,1.5849600,
,,,51.69599876E-3,1.5849600,
,,,51.69999972E-3,1.5724800,
,,,51.70400068E-3,1.5724800,
,,,51.70799792E-3,1.5974400,
,,,51.71199888E-3,1.5724800,
,,,51.71599984E-3,1.5974400,
,,,51.72000080E-3,1.5849600,
,,,51.72399804E-3,1.5724800,
,,,51.72799900E-3,1.5974400,
,,,51.73199996E-3,1.5849600,
,,,51.73600093E-3,1.5974400,
,,,51.73999816E-3,1.5849600,
,,,51.74399912E-3,1.5600001,
,,,51.74800009E-3,1.5600001,
,,,51.75199732E-3,1.5600001,
,,,51.75599828E-3,1.5600001,
,,,51.75999925E-3,1.5350400,
,,,51.76400021E-3,1.5475200,
,,,51.76799744E-3,1.5350400,
,,,51.77199841E-3,1.5475200,
,,,51.77599937E-3,1.5475200,
,,,51.78000033E-3,1.5350400,
,,,51.78399757E-3,1.5350400,
,,,51.78799853E-3,1.4976000,
,,,51.79199949E-3,1.4851201,
,,,51.79600045E-3,1.4851201,
,,,51.79999769E-3,1.5100800,
,,,51.80399865E-3,1.5225600,
,,,51.80799961E-3,1.5100800,
,,,51.81200057E-3,1.4851201,
,,,51.81599781E-3,1.4851201,
,,,51.81999877E-3,1.4851201,
,,,51.82399973E-3,1.4726400,
,,,51.82800069E-3,1.5100800,
,,,51.83199793E-3,1.4976000,
,,,51.83599889E-3,1.4601600,
,,,51.83999985E-3,1.4726400,
,,,51.84400082E-3,1.4601600,
,,,51.84799805E-3,1.4726400,
,,,51.85199901E-3,1.4476800,
,,,51.85599998E-3,1.4352000,
,,,51.86000094E-3,1.4476800,
,,,51.86399817E-3,1.4476800,
,,,51.86799914E-3,1.4476800,
,,,51.87200010E-3,1.4352000,
,,,51.87599733E-3,1.4476800,
,,,51.87999830E-3,1.4476800,
,,,51.88399926E-3,1.4476800,
,,,51.88800022E-3,1.4352000,
,,,51.89199746E-3,1.4476800,
,,,51.89599842E-3,1.4227200,
,,,51.89999938E-3,1.4476800,
,,,51.90400034E-3,1.4352000,
,,,51.90799758E-3,1.4352000,
,,,51.91199854E-3,1.4227200,
,,,51.91599950E-3,1.4102401,
,,,51.92000046E-3,1.4227200,
,,,51.92399770E-3,1.3977600,
,,,51.92799866E-3,1.4102401,
,,,51.93199962E-3,1.3852800,
,,,51.93600059E-3,1.3852800,
,,,51.93999782E-3,1.3603200,
,,,51.94399878E-3,1.3728000,
,,,51.94799975E-3,1.3852800,
,,,51.95200071E-3,1.3728000,
,,,51.95599794E-3,1.3478400,
,,,51.95999891E-3,1.3852800,
,,,51.96399987E-3,1.3852800,
,,,51.96800083E-3,1.3728000,
,,,51.97199807E-3,1.3603200,
,,,51.97599903E-3,1.3728000,
,,,51.97999999E-3,1.3728000,
,,,51.98400095E-3,1.3728000,
,,,51.98799819E-3,1.3603200,
,,,51.99199915E-3,1.3478400,
,,,51.99600011E-3,1.3478400,
,,,51.99999735E-3,1.3353601,
,,,52.00399831E-3,1.3228800,
,,,52.00799927E-3,1.3104000,
,,,52.01200023E-3,1.2979200,
,,,52.01599747E-3,1.2979200,
,,,52.01999843E-3,1.3104000,
,,,52.02399939E-3,1.2979200,
,,,52.02800035E-3,1.2979200,
,,,52.03199759E-3,1.3104000,
,,,52.03599855E-3,1.2979200,
,,,52.03999951E-3,1.3353601,
,,,52.04400048E-3,1.3228800,
,,,52.04799771E-3,1.2979200,
,,,52.05199867E-3,1.2979200,
,,,52.05599964E-3,1.2979200,
,,,52.06000060E-3,1.2729599,
,,,52.06399783E-3,1.2729599,
,,,52.06799880E-3,1.2729599,
,,,52.07199976E-3,1.2729599,
,,,52.07600072E-3,1.2729599,
,,,52.07999796E-3,1.2230400,
,,,52.08399892E-3,1.2355200,
,,,52.08799988E-3,1.2355200,
,,,52.09200084E-3,1.2230400,
,,,52.09599808E-3,1.2230400,
,,,52.09999904E-3,1.2230400,
,,,52.10400000E-3,1.2105600,
,,,52.10800096E-3,1.2105600,
,,,52.11199820E-3,1.2105600,
,,,52.11599916E-3,1.2230400,
,,,52.12000012E-3,1.2105600,
,,,52.12399736E-3,1.2230400,
,,,52.12799832E-3,1.2230400,
,,,52.13199928E-3,1.2230400,
,,,52.13600025E-3,1.2105600,
,,,52.13999748E-3,1.1856000,
,,,52.14399844E-3,1.1731200,
,,,52.14799941E-3,1.1731200,
,,,52.15200037E-3,1.1606400,
,,,52.15599760E-3,1.1606400,
,,,52.15999857E-3,1.1731200,
,,,52.16399953E-3,1.1731200,
,,,52.16800049E-3,1.1856000,
,,,52.17199773E-3,1.1980801,
,,,52.17599869E-3,1.1980801,
,,,52.17999965E-3,1.1856000,
,,,52.18400061E-3,1.1731200,
,,,52.18799785E-3,1.1731200,
,,,52.19199881E-3,1.1606400,
,,,52.19599977E-3,1.1606400,
,,,52.20000073E-3,1.1606400,
,,,52.20399797E-3,1.1481600,
,,,52.20799893E-3,1.1356800,
,,,52.21199989E-3,1.1232001,
,,,52.21600085E-3,1.1232001,
,,,52.21999809E-3,1.1107200,
,,,52.22399905E-3,1.1107200,
,,,52.22800002E-3,1.0982400,
,,,52.23200098E-3,1.1107200,
,,,52.23599821E-3,1.0857600,
,,,52.23999918E-3,1.0857600,
,,,52.24400014E-3,1.0982400,
,,,52.24799737E-3,1.0982400,
,,,52.25199834E-3,1.0982400,
,,,52.25599930E-3,1.1107200,
,,,52.26000026E-3,1.1232001,
,,,52.26399750E-3,1.1107200,
,,,52.26799846E-3,1.1107200,
,,,52.27199942E-3,1.0982400,
,,,52.27600038E-3,1.0982400,
,,,52.27999762E-3,1.0982400,
,,,52.28399858E-3,1.0857600,
,,,52.28799954E-3,1.0982400,
,,,52.29200050E-3,1.0732800,
,,,52.29599774E-3,1.0732800,
,,,52.29999870E-3,1.0732800,
,,,52.30399966E-3,1.0483201,
,,,52.30800062E-3,1.0608000,
,,,52.31199786E-3,1.0608000,
,,,52.31599882E-3,1.0608000,
,,,52.31999978E-3,1.0608000,
,,,52.32400075E-3,1.0358400,
,,,52.32799798E-3,1.0233600,
,,,52.33199894E-3,1.0483201,
,,,52.33599991E-3,1.0358400,
,,,52.34000087E-3,1.0108800,
,,,52.34399810E-3,1.0108800,
,,,52.34799907E-3,1.0108800,
,,,52.35200003E-3,998.399972916E-3,
,,,52.35600099E-3,1.0108800,
,,,52.35999823E-3,1.0233600,
,,,52.36399919E-3,1.0233600,
,,,52.36800015E-3,1.0108800,
,,,52.37199739E-3,998.399972916E-3,
,,,52.37599835E-3,998.399972916E-3,
,,,52.37999931E-3,1.0108800,
,,,52.38400027E-3,1.0108800,
,,,52.38799751E-3,1.0108800,
,,,52.39199847E-3,1.0358400,
,,,52.39599943E-3,1.0233600,
,,,52.40000039E-3,1.0108800,
,,,52.40399763E-3,1.0108800,
,,,52.40799859E-3,985.920011997E-3,
,,,52.41199955E-3,1.0108800,
,,,52.41600052E-3,985.920011997E-3,
,,,52.41999775E-3,973.439991474E-3,
,,,52.42399871E-3,985.920011997E-3,
,,,52.42799968E-3,960.960030556E-3,
,,,52.43200064E-3,973.439991474E-3,
,,,52.43599787E-3,973.439991474E-3,
,,,52.43999884E-3,960.960030556E-3,
,,,52.44399980E-3,935.999989510E-3,
,,,52.44800076E-3,911.040008068E-3,
,,,52.45199800E-3,886.080026627E-3,
,,,52.45599896E-3,923.520028591E-3,
,,,52.45999992E-3,948.480010033E-3,
,,,52.46400088E-3,935.999989510E-3,
,,,52.46799812E-3,935.999989510E-3,
,,,52.47199908E-3,923.520028591E-3,
,,,52.47600004E-3,923.520028591E-3,
,,,52.48000100E-3,923.520028591E-3,
,,,52.48399824E-3,911.040008068E-3,
,,,52.48799920E-3,911.040008068E-3,
,,,52.49200016E-3,898.559987545E-3,
,,,52.49599740E-3,886.080026627E-3,
,,,52.49999836E-3,886.080026627E-3,
,,,52.50399932E-3,886.080026627E-3,
,,,52.50800028E-3,911.040008068E-3,
,,,52.51199752E-3,911.040008068E-3,
,,,52.51599848E-3,923.520028591E-3,
,,,52.51999944E-3,935.999989510E-3,
,,,52.52400041E-3,911.040008068E-3,
