Data/T1/Trace13.csv

Record Length,2500,Points,13.6399996E-3,87.999999523E-3,
Sample Interval,3.99999999E-6,s,13.6439996E-3,87.999999523E-3,
Trigger Point,-3.41000006E3,Samples,13.6479996E-3,87.999999523E-3,
,,,13.6519996E-3,43.99999976E-3,
,,,13.6559997E-3,131.9999993E-3,
,,,13.6599997E-3,87.999999523E-3,
Source,CH1,,13.6639997E-3,87.999999523E-3,
Vertical Units,Volts,,13.6679998E-3,131.9999993E-3,
Vertical Scale,1.1000000,,13.6719998E-3,87.999999523E-3,
Vertical Offset,0,,13.6759998E-3,87.999999523E-3,
Horizontal Units,s,,13.6799999E-3,87.999999523E-3,
Horizontal Scale,1.000000E-3,,13.6839999E-3,43.99999976E-3,
Pt Fmt,Y,,13.6879999E-3,131.9999993E-3,
Yzero,-3.48000000,,13.6919999E-3,131.9999993E-3,
Probe Atten,1.000000,,13.6960000E-3,131.9999993E-3,
,,,13.7000000E-3,87.999999523E-3,
Note,TBS 1052B - 15:12:23   05/04/2019,,13.7039991E-3,131.9999993E-3,
,,,13.7079991E-3,87.999999523E-3,
,,,13.7119992E-3,87.999999523E-3,
,,,13.7159992E-3,87.999999523E-3,
,,,13.7199992E-3,131.9999993E-3,
,,,13.7239993E-3,87.999999523E-3,
,,,13.7279993E-3,87.999999523E-3,
,,,13.7319993E-3,87.999999523E-3,
,,,13.7359994E-3,87.999999523E-3,
,,,13.7399994E-3,87.999999523E-3,
,,,13.7439994E-3,43.99999976E-3,
,,,13.7479994E-3,87.999999523E-3,
,,,13.7519995E-3,43.99999976E-3,
,,,13.7559995E-3,43.99999976E-3,
,,,13.7599995E-3,43.99999976E-3,
,,,13.7639996E-3,43.99999976E-3,
,,,13.7679996E-3,131.9999993E-3,
,,,13.7719996E-3,43.99999976E-3,
,,,13.7759997E-3,43.99999976E-3,
,,,13.7799997E-3,43.99999976E-3,
,,,13.7839997E-3,43.99999976E-3,
,,,13.7879997E-3,87.999999523E-3,
,,,13.7919998E-3,87.999999523E-3,
,,,13.7959998E-3,87.999999523E-3,
,,,13.7999998E-3,131.9999993E-3,
,,,13.8039999E-3,87.999999523E-3,
,,,13.8079999E-3,131.9999993E-3,
,,,13.8119999E-3,131.9999993E-3,
,,,13.8160000E-3,131.9999993E-3,
,,,13.8200000E-3,87.999999523E-3,
,,,13.8239991E-3,87.999999523E-3,
,,,13.8279991E-3,87.999999523E-3,
,,,13.8319992E-3,131.9999993E-3,
,,,13.8359992E-3,87.999999523E-3,
,,,13.8399992E-3,87.999999523E-3,
,,,13.8439992E-3,131.9999993E-3,
,,,13.8479993E-3,87.999999523E-3,
,,,13.8519993E-3,87.999999523E-3,
,,,13.8559993E-3,87.999999523E-3,
,,,13.8599994E-3,87.999999523E-3,
,,,13.8639994E-3,87.999999523E-3,
,,,13.8679994E-3,43.99999976E-3,
,,,13.8719995E-3,43.99999976E-3,
,,,13.8759995E-3,87.999999523E-3,
,,,13.8799995E-3,87.999999523E-3,
,,,13.8839995E-3,43.99999976E-3,
,,,13.8879996E-3,87.999999523E-3,
,,,13.8919996E-3,87.999999523E-3,
,,,13.8959996E-3,87.999999523E-3,
,,,13.8999997E-3,43.99999976E-3,
,,,13.9039997E-3,43.99999976E-3,
,,,13.9079997E-3,87.999999523E-3,
,,,13.9119998E-3,43.99999976E-3,
,,,13.9159998E-3,87.999999523E-3,
,,,13.9199998E-3,43.99999976E-3,
,,,13.9239999E-3,87.999999523E-3,
,,,13.9279999E-3,87.999999523E-3,
,,,13.9319999E-3,87.999999523E-3,
,,,13.9359999E-3,131.9999993E-3,
,,,13.9400000E-3,87.999999523E-3,
,,,13.9440000E-3,87.999999523E-3,
,,,13.9479991E-3,43.99999976E-3,
,,,13.9519991E-3,87.999999523E-3,
,,,13.9559992E-3,87.999999523E-3,
,,,13.9599992E-3,87.999999523E-3,
,,,13.9639992E-3,87.999999523E-3,
,,,13.9679993E-3,87.999999523E-3,
,,,13.9719993E-3,43.99999976E-3,
,,,13.9759993E-3,43.99999976E-3,
,,,13.9799993E-3,131.9999993E-3,
,,,13.9839994E-3,131.9999993E-3,
,,,13.9879994E-3,87.999999523E-3,
,,,13.9919994E-3,43.99999976E-3,
,,,13.9959995E-3,87.999999523E-3,
,,,13.9999995E-3,87.999999523E-3,
,,,14.0039995E-3,87.999999523E-3,
,,,14.0079996E-3,0.0,
,,,14.0119996E-3,43.99999976E-3,
,,,14.0159996E-3,0.0,
,,,14.0199997E-3,0.0,
,,,14.0239997E-3,0.0,
,,,14.0279997E-3,0.0,
,,,14.0319997E-3,43.99999976E-3,
,,,14.0359998E-3,1.4960001,
,,,14.0399998E-3,2.5079999,
,,,14.0439998E-3,3.21199989,
,,,14.0479999E-3,3.69600010,
,,,14.0519999E-3,3.96000004,
,,,14.0559999E-3,4.13600016,
,,,14.0600000E-3,4.31199980,
,,,14.0640000E-3,4.35599995,
,,,14.0679991E-3,4.44399977,
,,,14.0719991E-3,4.44399977,
,,,14.0759991E-3,4.48799992,
,,,14.0799992E-3,4.48799992,
,,,14.0839992E-3,4.48799992,
,,,14.0879992E-3,4.57600021,
,,,14.0919993E-3,4.53200006,
,,,14.0959993E-3,4.53200006,
,,,14.0999993E-3,4.53200006,
,,,14.1039994E-3,4.48799992,
,,,14.1079994E-3,4.48799992,
,,,14.1119994E-3,4.53200006,
,,,14.1159995E-3,4.48799992,
,,,14.1199995E-3,4.53200006,
,,,14.1239995E-3,4.48799992,
,,,14.1279995E-3,4.48799992,
,,,14.1319996E-3,4.48799992,
,,,14.1359996E-3,4.44399977,
,,,14.1399996E-3,4.48799992,
,,,14.1439997E-3,4.48799992,
,,,14.1479997E-3,4.48799992,
,,,14.1519997E-3,4.48799992,
,,,14.1559998E-3,4.48799992,
,,,14.1599998E-3,4.48799992,
,,,14.1639998E-3,4.44399977,
,,,14.1679998E-3,4.48799992,
,,,14.1719999E-3,4.48799992,
,,,14.1759999E-3,4.48799992,
,,,14.1799999E-3,4.53200006,
,,,14.1840000E-3,4.44399977,
,,,14.1880000E-3,4.44399977,
,,,14.1919991E-3,4.44399977,
,,,14.1959991E-3,4.44399977,
,,,14.1999992E-3,4.44399977,
,,,14.2039992E-3,4.44399977,
,,,14.2079992E-3,4.48799992,
,,,14.2119993E-3,4.48799992,
,,,14.2159993E-3,4.44399977,
,,,14.2199993E-3,4.40000010,
,,,14.2239993E-3,4.44399977,
,,,14.2279994E-3,4.48799992,
,,,14.2319994E-3,4.53200006,
,,,14.2359994E-3,4.44399977,
,,,14.2399995E-3,4.44399977,
,,,14.2439995E-3,4.40000010,
,,,14.2479995E-3,4.44399977,
,,,14.2519996E-3,4.40000010,
,,,14.2559996E-3,4.44399977,
,,,14.2599996E-3,4.44399977,
,,,14.2639996E-3,4.35599995,
,,,14.2679997E-3,4.40000010,
,,,14.2719997E-3,4.40000010,
,,,14.2759997E-3,4.40000010,
,,,14.2799998E-3,4.40000010,
,,,14.2839998E-3,4.35599995,
,,,14.2879998E-3,4.40000010,
,,,14.2919999E-3,4.35599995,
,,,14.2959999E-3,4.40000010,
,,,14.2999999E-3,4.31199980,
,,,14.3040000E-3,4.35599995,
,,,14.3080000E-3,4.35599995,
,,,14.3120000E-3,4.35599995,
,,,14.3159991E-3,4.35599995,
,,,14.3199991E-3,4.35599995,
,,,14.3239992E-3,4.35599995,
,,,14.3279992E-3,4.35599995,
,,,14.3319992E-3,4.40000010,
,,,14.3359993E-3,4.31199980,
,,,14.3399993E-3,4.31199980,
,,,14.3439993E-3,4.31199980,
,,,14.3479994E-3,4.31199980,
,,,14.3519994E-3,4.31199980,
,,,14.3559994E-3,4.26800013,
,,,14.3599994E-3,4.26800013,
,,,14.3639995E-3,4.26800013,
,,,14.3679995E-3,4.31199980,
,,,14.3719995E-3,4.26800013,
,,,14.3759996E-3,4.31199980,
,,,14.3799996E-3,4.26800013,
,,,14.3839996E-3,4.22399998,
,,,14.3879997E-3,4.26800013,
,,,14.3919997E-3,4.22399998,
,,,14.3959997E-3,4.22399998,
,,,14.3999998E-3,4.22399998,
,,,14.4039998E-3,4.22399998,
,,,14.4079998E-3,4.17999983,
,,,14.4119998E-3,4.22399998,
,,,14.4159999E-3,4.22399998,
,,,14.4199999E-3,4.22399998,
,,,14.4239999E-3,4.22399998,
,,,14.4280000E-3,4.22399998,
,,,14.4320000E-3,4.17999983,
,,,14.4359991E-3,4.22399998,
,,,14.4399991E-3,4.13600016,
,,,14.4439992E-3,4.13600016,
,,,14.4479992E-3,4.13600016,
,,,14.4519992E-3,4.09200001,
,,,14.4559992E-3,4.09200001,
,,,14.4599993E-3,4.09200001,
,,,14.4639993E-3,4.13600016,
,,,14.4679993E-3,4.09200001,
,,,14.4719994E-3,4.13600016,
,,,14.4759994E-3,4.09200001,
,,,14.4799994E-3,4.13600016,
,,,14.4839995E-3,4.09200001,
,,,14.4879995E-3,4.13600016,
,,,14.4919995E-3,4.09200001,
,,,14.4959996E-3,4.13600016,
,,,14.4999996E-3,4.09200001,
,,,14.5039996E-3,4.09200001,
,,,14.5079996E-3,4.04799986,
,,,14.5119997E-3,4.09200001,
,,,14.5159997E-3,4.00400019,
,,,14.5199997E-3,4.00400019,
,,,14.5239998E-3,4.04799986,
,,,14.5279998E-3,4.00400019,
,,,14.5319998E-3,4.00400019,
,,,14.5359999E-3,4.00400019,
,,,14.5399999E-3,4.00400019,
,,,14.5439999E-3,4.00400019,
,,,14.5479999E-3,4.00400019,
,,,14.5520000E-3,4.00400019,
,,,14.5560000E-3,3.96000004,
,,,14.5599991E-3,3.96000004,
,,,14.5639991E-3,3.96000004,
,,,14.5679992E-3,3.91599989,
,,,14.5719992E-3,3.91599989,
,,,14.5759992E-3,3.96000004,
,,,14.5799993E-3,3.96000004,
,,,14.5839993E-3,3.91599989,
,,,14.5879993E-3,3.91599989,
,,,14.5919994E-3,3.91599989,
,,,14.5959994E-3,3.96000004,
,,,14.5999994E-3,3.87199998,
,,,14.6039994E-3,3.91599989,
,,,14.6079995E-3,3.87199998,
,,,14.6119995E-3,3.87199998,
,,,14.6159995E-3,3.91599989,
,,,14.6199996E-3,3.87199998,
,,,14.6239996E-3,3.91599989,
,,,14.6279996E-3,3.82800007,
,,,14.6319997E-3,3.87199998,
,,,14.6359997E-3,3.87199998,
,,,14.6399997E-3,3.82800007,
,,,14.6439997E-3,3.82800007,
,,,14.6479998E-3,3.82800007,
,,,14.6519998E-3,3.87199998,
,,,14.6559998E-3,3.82800007,
,,,14.6599999E-3,3.82800007,
,,,14.6639999E-3,3.82800007,
,,,14.6679999E-3,3.74000001,
,,,14.6720000E-3,3.74000001,
,,,14.6760000E-3,3.74000001,
,,,14.6799991E-3,3.74000001,
,,,14.6839991E-3,3.74000001,
,,,14.6879992E-3,3.69600010,
,,,14.6919992E-3,3.74000001,
,,,14.6959992E-3,3.74000001,
,,,14.6999992E-3,3.74000001,
,,,14.7039993E-3,3.69600010,
,,,14.7079993E-3,3.69600010,
,,,14.7119993E-3,3.69600010,
,,,14.7159994E-3,3.69600010,
,,,14.7199994E-3,3.65199995,
,,,14.7239994E-3,3.65199995,
,,,14.7279995E-3,3.65199995,
,,,14.7319995E-3,3.65199995,
,,,14.7359995E-3,3.65199995,
,,,14.7399995E-3,3.60800004,
,,,14.7439996E-3,3.65199995,
,,,14.7479996E-3,3.65199995,
,,,14.7519996E-3,3.60800004,
,,,14.7559997E-3,3.56399989,
,,,14.7599997E-3,3.60800004,
,,,14.7639997E-3,3.56399989,
,,,14.7679998E-3,3.56399989,
,,,14.7719998E-3,3.51999998,
,,,14.7759998E-3,3.51999998,
,,,14.7799999E-3,3.47600007,
,,,14.7839999E-3,3.47600007,
,,,14.7879999E-3,3.51999998,
,,,14.7919999E-3,3.51999998,
,,,14.7960000E-3,3.51999998,
,,,14.8000000E-3,3.47600007,
,,,14.8039991E-3,3.47600007,
,,,14.8079991E-3,3.38800001,
,,,14.8119992E-3,3.47600007,
,,,14.8159992E-3,3.47600007,
,,,14.8199992E-3,3.47600007,
,,,14.8239993E-3,3.38800001,
,,,14.8279993E-3,3.43199992,
,,,14.8319993E-3,3.43199992,
,,,14.8359993E-3,3.38800001,
,,,14.8399994E-3,3.43199992,
,,,14.8439994E-3,3.43199992,
,,,14.8479994E-3,3.34399986,
,,,14.8519995E-3,3.38800001,
,,,14.8559995E-3,3.38800001,
,,,14.8599995E-3,3.34399986,
,,,14.8639996E-3,3.38800001,
,,,14.8679996E-3,3.29999995,
,,,14.8719996E-3,3.34399986,
,,,14.8759997E-3,3.29999995,
,,,14.8799997E-3,3.29999995,
,,,14.8839997E-3,3.34399986,
,,,14.8879997E-3,3.29999995,
,,,14.8919998E-3,3.25600004,
,,,14.8959998E-3,3.21199989,
,,,14.8999998E-3,3.25600004,
,,,14.9039999E-3,3.29999995,
,,,14.9079999E-3,3.21199989,
,,,14.9119999E-3,3.21199989,
,,,14.9160000E-3,3.21199989,
,,,14.9200000E-3,3.16799998,
,,,14.9239991E-3,3.16799998,
,,,14.9279991E-3,3.21199989,
,,,14.9319991E-3,3.21199989,
,,,14.9359992E-3,3.16799998,
,,,14.9399992E-3,3.21199989,
,,,14.9439992E-3,3.16799998,
,,,14.9479993E-3,3.16799998,
,,,14.9519993E-3,3.12400007,
,,,14.9559993E-3,3.12400007,
,,,14.9599994E-3,3.12400007,
,,,14.9639994E-3,3.12400007,
,,,14.9679994E-3,3.12400007,
,,,14.9719995E-3,3.12400007,
,,,14.9759995E-3,3.12400007,
,,,14.9799995E-3,3.12400007,
,,,14.9839995E-3,3.07999992,
,,,14.9879996E-3,2.99200010,
,,,14.9919996E-3,3.07999992,
,,,14.9959996E-3,3.07999992,
,,,14.9999997E-3,3.07999992,
,,,15.0039997E-3,2.99200010,
,,,15.0079997E-3,3.03600001,
,,,15.0119998E-3,3.03600001,
,,,15.0159998E-3,2.99200010,
,,,15.0199998E-3,2.99200010,
,,,15.0239998E-3,2.94799995,
,,,15.0279999E-3,2.99200010,
,,,15.0319999E-3,2.94799995,
,,,15.0359999E-3,2.94799995,
,,,15.0400000E-3,2.94799995,
,,,15.0440000E-3,2.94799995,
,,,15.0479991E-3,2.90400004,
,,,15.0519991E-3,2.94799995,
,,,15.0559992E-3,2.94799995,
,,,15.0599992E-3,2.90400004,
,,,15.0639992E-3,2.90400004,
,,,15.0679993E-3,2.85999990,
,,,15.0719993E-3,2.90400004,
,,,15.0759993E-3,2.85999990,
,,,15.0799993E-3,2.85999990,
,,,15.0839994E-3,2.81599998,
,,,15.0879994E-3,2.85999990,
,,,15.0919994E-3,2.90400004,
,,,15.0959995E-3,2.85999990,
,,,15.0999995E-3,2.81599998,
,,,15.1039995E-3,2.81599998,
,,,15.1079996E-3,2.81599998,
,,,15.1119996E-3,2.81599998,
,,,15.1159996E-3,2.81599998,
,,,15.1199996E-3,2.81599998,
,,,15.1239997E-3,2.77200007,
,,,15.1279997E-3,2.77200007,
,,,15.1319997E-3,2.77200007,
,,,15.1359998E-3,2.81599998,
,,,15.1399998E-3,2.77200007,
,,,15.1439998E-3,2.77200007,
,,,15.1479999E-3,2.81599998,
,,,15.1519999E-3,2.77200007,
,,,15.1559999E-3,2.6840000,
,,,15.1600000E-3,2.6840000,
,,,15.1640000E-3,2.6840000,
,,,15.1680000E-3,2.6840000,
,,,15.1719991E-3,2.6840000,
,,,15.1759991E-3,2.6840000,
,,,15.1799992E-3,2.6840000,
,,,15.1839992E-3,2.6840000,
,,,15.1879992E-3,2.6840000,
,,,15.1919993E-3,2.6840000,
,,,15.1959993E-3,2.6399999,
,,,15.1999993E-3,2.6399999,
,,,15.2039994E-3,2.5960000,
,,,15.2079994E-3,2.5960000,
,,,15.2119994E-3,2.5520000,
,,,15.2159994E-3,2.5960000,
,,,15.2199995E-3,2.5960000,
,,,15.2239995E-3,2.5960000,
,,,15.2279995E-3,2.5960000,
,,,15.2319996E-3,2.5960000,
,,,15.2359996E-3,2.5960000,
,,,15.2399996E-3,2.5520000,
,,,15.2439997E-3,2.5520000,
,,,15.2479997E-3,2.5520000,
,,,15.2519997E-3,2.5079999,
,,,15.2559998E-3,2.5079999,
,,,15.2599998E-3,2.5079999,
,,,15.2639998E-3,2.5079999,
,,,15.2679998E-3,2.4640000,
,,,15.2719999E-3,2.4640000,
,,,15.2759999E-3,2.5079999,
,,,15.2799999E-3,2.4640000,
,,,15.2840000E-3,2.4640000,
,,,15.2880000E-3,2.4200001,
,,,15.2919991E-3,2.4640000,
,,,15.2959991E-3,2.4200001,
,,,15.2999992E-3,2.4200001,
,,,15.3039992E-3,2.4200001,
,,,15.3079992E-3,2.4200001,
,,,15.3119992E-3,2.4640000,
,,,15.3159993E-3,2.3759999,
,,,15.3199993E-3,2.4200001,
,,,15.3239993E-3,2.3759999,
,,,15.3279994E-3,2.4640000,
,,,15.3319994E-3,2.3759999,
,,,15.3359994E-3,2.3759999,
,,,15.3399995E-3,2.3759999,
,,,15.3439995E-3,2.3759999,
,,,15.3479995E-3,2.3759999,
,,,15.3519996E-3,2.3320000,
,,,15.3559996E-3,2.3320000,
,,,15.3599996E-3,2.2880001,
,,,15.3639996E-3,2.3320000,
,,,15.3679997E-3,2.3320000,
,,,15.3719997E-3,2.3320000,
,,,15.3759997E-3,2.2880001,
,,,15.3799998E-3,2.2880001,
,,,15.3839998E-3,2.2440000,
,,,15.3879998E-3,2.2440000,
,,,15.3919999E-3,2.2000000,
,,,15.3959999E-3,2.2440000,
,,,15.3999999E-3,2.2440000,
,,,15.4039999E-3,2.2880001,
,,,15.4080000E-3,2.2880001,
,,,15.4120000E-3,2.2880001,
,,,15.4159991E-3,2.2440000,
,,,15.4199991E-3,2.2000000,
,,,15.4239992E-3,2.2000000,
,,,15.4279992E-3,2.2000000,
,,,15.4319992E-3,2.2000000,
,,,15.4359993E-3,2.2000000,
,,,15.4399993E-3,2.2000000,
,,,15.4439993E-3,2.1559999,
,,,15.4479994E-3,2.2000000,
,,,15.4519994E-3,2.1559999,
,,,15.4559994E-3,2.1559999,
,,,15.4599994E-3,2.1559999,
,,,15.4639995E-3,2.1120000,
,,,15.4679995E-3,2.1559999,
,,,15.4719995E-3,2.1120000,
,,,15.4759996E-3,2.1120000,
,,,15.4799996E-3,2.0680001,
,,,15.4839996E-3,2.1120000,
,,,15.4879997E-3,2.1120000,
,,,15.4919997E-3,2.1559999,
,,,15.4959997E-3,2.1559999,
,,,15.4999997E-3,2.1120000,
,,,15.5039998E-3,2.1120000,
,,,15.5079998E-3,2.1120000,
,,,15.5119998E-3,2.1120000,
,,,15.5159999E-3,2.0680001,
,,,15.5199999E-3,2.0680001,
,,,15.5239999E-3,2.0680001,
,,,15.5280000E-3,2.0239999,
,,,15.5320000E-3,2.0680001,
,,,15.5359991E-3,2.0239999,
,,,15.5399991E-3,2.0239999,
,,,15.5439992E-3,2.0239999,
,,,15.5479992E-3,2.0239999,
,,,15.5519992E-3,2.0239999,
,,,15.5559992E-3,2.0239999,
,,,15.5599993E-3,2.0239999,
,,,15.5639993E-3,2.0239999,
,,,15.5679993E-3,2.0239999,
,,,15.5719994E-3,2.0239999,
,,,15.5759994E-3,1.9800000,
,,,15.5799994E-3,2.0239999,
,,,15.5839995E-3,1.9800000,
,,,15.5879995E-3,2.0239999,
,,,15.5919995E-3,2.0239999,
,,,15.5959995E-3,1.9800000,
,,,15.5999996E-3,1.9360000,
,,,15.6039996E-3,1.9360000,
,,,15.6079996E-3,1.9360000,
,,,15.6119997E-3,1.9800000,
,,,15.6159997E-3,1.9360000,
,,,15.6199997E-3,1.9360000,
,,,15.6239998E-3,1.9360000,
,,,15.6279989E-3,1.9360000,
,,,15.6319998E-3,1.9360000,
,,,15.6359989E-3,1.9360000,
,,,15.6399999E-3,1.8920000,
,,,15.6439990E-3,1.8480000,
,,,15.6479999E-3,1.8920000,
,,,15.6519990E-3,1.8920000,
,,,15.6560000E-3,1.8920000,
,,,15.6599991E-3,1.8920000,
,,,15.6640001E-3,1.8920000,
,,,15.6679992E-3,1.8920000,
,,,15.6720001E-3,1.8480000,
,,,15.6759992E-3,1.8920000,
,,,15.6800002E-3,1.8040000,
,,,15.6839993E-3,1.8040000,
,,,15.6880002E-3,1.8040000,
,,,15.6919993E-3,1.8040000,
,,,15.6960003E-3,1.8480000,
,,,15.6999994E-3,1.8480000,
,,,15.7040004E-3,1.8040000,
,,,15.7079995E-3,1.8040000,
,,,15.7120004E-3,1.8040000,
,,,15.7159995E-3,1.7600000,
,,,15.7199986E-3,1.8040000,
,,,15.7239996E-3,1.8040000,
,,,15.7279987E-3,1.8040000,
,,,15.7319997E-3,1.8040000,
,,,15.7359987E-3,1.8040000,
,,,15.7399997E-3,1.7600000,
,,,15.7439988E-3,1.7600000,
,,,15.7479998E-3,1.7600000,
,,,15.7519989E-3,1.8040000,
,,,15.7559998E-3,1.7600000,
,,,15.7599989E-3,1.7600000,
,,,15.7639999E-3,1.7600000,
,,,15.7679990E-3,1.6719999,
,,,15.7720000E-3,1.7600000,
,,,15.7759991E-3,1.7160000,
,,,15.7800000E-3,1.7160000,
,,,15.7839991E-3,1.7160000,
,,,15.7880001E-3,1.7160000,
,,,15.7919992E-3,1.7160000,
,,,15.7960001E-3,1.6719999,
,,,15.7999992E-3,1.6280000,
,,,15.8040002E-3,1.6719999,
,,,15.8079993E-3,1.7160000,
,,,15.8120003E-3,1.6719999,
,,,15.8159994E-3,1.6719999,
,,,15.8200003E-3,1.6280000,
,,,15.8239994E-3,1.6719999,
,,,15.8280004E-3,1.6719999,
,,,15.8319995E-3,1.6719999,
,,,15.8360004E-3,1.6719999,
,,,15.8399995E-3,1.6719999,
,,,15.8439986E-3,1.6719999,
,,,15.8479996E-3,1.6719999,
,,,15.8519987E-3,1.6280000,
,,,15.8559997E-3,1.6280000,
,,,15.8599988E-3,1.6280000,
,,,15.8639997E-3,1.6280000,
,,,15.8679988E-3,1.6280000,
,,,15.8719998E-3,1.6280000,
,,,15.8759989E-3,1.6280000,
,,,15.8799998E-3,1.6280000,
,,,15.8839989E-3,1.6280000,
,,,15.8879999E-3,1.6719999,
,,,15.8919990E-3,1.5840000,
,,,15.8960000E-3,1.6280000,
,,,15.8999991E-3,1.5840000,
,,,15.9040000E-3,1.6719999,
,,,15.9079991E-3,1.6280000,
,,,15.9120001E-3,1.6280000,
,,,15.9159992E-3,1.6280000,
,,,15.9200002E-3,1.5840000,
,,,15.9239992E-3,1.6280000,
,,,15.9280002E-3,1.5840000,
,,,15.9319993E-3,1.5400000,
,,,15.9360003E-3,1.5400000,
,,,15.9399994E-3,1.5400000,
,,,15.9440003E-3,1.4960001,
,,,15.9479994E-3,1.4960001,
,,,15.9520004E-3,1.5400000,
,,,15.9559995E-3,1.5400000,
,,,15.9600005E-3,1.5400000,
,,,15.9639996E-3,1.5400000,
,,,15.9679987E-3,1.5400000,
,,,15.9719996E-3,1.4960001,
,,,15.9759987E-3,1.5400000,
,,,15.9799997E-3,1.4960001,
,,,15.9839988E-3,1.4960001,
,,,15.9879997E-3,1.4960001,
,,,15.9919988E-3,1.4520000,
,,,15.9959998E-3,1.5400000,
,,,15.9999989E-3,1.4960001,
,,,16.0039999E-3,1.4960001,
,,,16.0079990E-3,1.4520000,
,,,16.0119999E-3,1.4520000,
,,,16.0159990E-3,1.4520000,
,,,16.0200000E-3,1.4080000,
,,,16.0239991E-3,1.4520000,
,,,16.0280000E-3,1.4520000,
,,,16.0319991E-3,1.4520000,
,,,16.0360001E-3,1.4080000,
,,,16.0399992E-3,1.4080000,
,,,16.0440002E-3,1.4520000,
,,,16.0479993E-3,1.4080000,
,,,16.0520002E-3,1.3640000,
,,,16.0559993E-3,1.3640000,
,,,16.0600003E-3,1.4080000,
,,,16.0639994E-3,1.4080000,
,,,16.0680003E-3,1.4080000,
,,,16.0719994E-3,1.4520000,
,,,16.0760004E-3,1.4080000,
,,,16.0799995E-3,1.4520000,
,,,16.0840005E-3,1.4080000,
,,,16.0879996E-3,1.4080000,
,,,16.0919987E-3,1.4080000,
,,,16.0959996E-3,1.4080000,
,,,16.0999987E-3,1.4960001,
,,,16.1039997E-3,1.4080000,
,,,16.1079988E-3,1.4080000,
,,,16.1119998E-3,1.4080000,
,,,16.1159988E-3,1.3640000,
,,,16.1199998E-3,1.3640000,
,,,16.1239989E-3,1.3640000,
,,,16.1279999E-3,1.3199999,
,,,16.1319990E-3,1.3199999,
,,,16.1359999E-3,1.3199999,
,,,16.1399990E-3,1.3640000,
,,,16.1440000E-3,1.3640000,
,,,16.1479991E-3,1.3640000,
,,,16.1520001E-3,1.3640000,
,,,16.1559992E-3,1.3199999,
,,,16.1600001E-3,1.3199999,
,,,16.1639992E-3,1.3640000,
,,,16.1680002E-3,1.3199999,
,,,16.1719993E-3,1.3640000,
,,,16.1760002E-3,1.3640000,
,,,16.1799993E-3,1.3640000,
,,,16.1840003E-3,1.3199999,
,,,16.1879994E-3,1.3640000,
,,,16.1920004E-3,1.3199999,
,,,16.1959995E-3,1.3199999,
,,,16.2000004E-3,1.3640000,
,,,16.2039995E-3,1.3199999,
,,,16.2079986E-3,1.3199999,
,,,16.2119996E-3,1.3199999,
,,,16.2159987E-3,1.3199999,
,,,16.2199996E-3,1.3199999,
,,,16.2239987E-3,1.2760000,
,,,16.2279997E-3,1.2760000,
,,,16.2319988E-3,1.2760000,
,,,16.2359998E-3,1.3199999,
,,,16.2399989E-3,1.3199999,
,,,16.2439998E-3,1.2760000,
,,,16.2479989E-3,1.3199999,
,,,16.2519999E-3,1.2320000,
,,,16.2559990E-3,1.2760000,
,,,16.2599999E-3,1.2760000,
,,,16.2639990E-3,1.2760000,
,,,16.2680000E-3,1.3199999,
,,,16.2719991E-3,1.3199999,
,,,16.2760001E-3,1.2760000,
,,,16.2799992E-3,1.3199999,
,,,16.2840001E-3,1.2760000,
,,,16.2879992E-3,1.3199999,
,,,16.2920002E-3,1.2760000,
,,,16.2959993E-3,1.2320000,
,,,16.3000003E-3,1.2760000,
,,,16.3039993E-3,1.2760000,
,,,16.3080003E-3,1.2760000,
,,,16.3119994E-3,1.2760000,
,,,16.3160004E-3,1.1880000,
,,,16.3199995E-3,1.2320000,
,,,16.3240004E-3,1.2320000,
,,,16.3279995E-3,1.2760000,
,,,16.3319986E-3,1.2760000,
,,,16.3359996E-3,1.2760000,
,,,16.3399987E-3,1.2320000,
