Data/T2/GlycerinT2Fri.csv

Record Length,2500,Points,-799.999979790E-6,0.0,
Sample Interval,39.99999899E-6,s,-759.999966249E-6,39.99999911E-3,
Trigger Point,20.0000000,Samples,-720.000010915E-6,39.99999911E-3,
,,,-679.999997374E-6,0.0,
,,,-639.999983832E-6,0.0,
,,,-599.999970291E-6,0.0,
Source,CH1,,-559.999956749E-6,0.0,
Vertical Units,Volts,,-520.000001416E-6,39.99999911E-3,
Vertical Scale,1.000000,,-479.999987874E-6,0.0,
Vertical Offset,0,,-439.999974333E-6,39.99999911E-3,
Horizontal Units,s,,-399.99998990E-6,0.0,
Horizontal Scale,9.999999747E-3,,-360.00000546E-6,0.0,
Pt Fmt,Y,,-319.99999192E-6,0.0,
Yzero,-3.24000000,,-279.99997837E-6,-39.99999911E-3,
Probe Atten,1.000000,,-239.99999394E-6,0.0,
,,,-199.99999495E-6,0.0,
Note,TBS 1052B - 14:26:39   12/04/2019,,-159.99999596E-6,0.0,
,,,-119.9999970E-6,0.0,
,,,-79.999997979E-6,39.99999911E-3,
,,,-39.99999899E-6,0.0,
,,,0.0,39.99999911E-3,
,,,39.99999899E-6,3.67999983,
,,,79.999997979E-6,5.71999979,
,,,119.9999970E-6,5.71999979,
,,,159.99999596E-6,5.71999979,
,,,199.99999495E-6,5.67999983,
,,,239.99999394E-6,5.63999987,
,,,279.99997837E-6,5.63999987,
,,,319.99999192E-6,5.59999990,
,,,360.00000546E-6,5.55999994,
,,,399.99998990E-6,5.55999994,
,,,439.999974333E-6,5.48000002,
,,,479.999987874E-6,5.48000002,
,,,520.000001416E-6,5.44000006,
,,,559.999956749E-6,5.40000010,
,,,599.999970291E-6,5.31999969,
,,,639.999983832E-6,5.35999966,
,,,679.999997374E-6,5.27999973,
,,,720.000010915E-6,5.19999981,
,,,759.999966249E-6,5.19999981,
,,,799.999979790E-6,5.11999989,
,,,839.999993332E-6,5.07999992,
,,,879.999948665E-6,5.03999996,
,,,919.999962207E-6,5.03999996,
,,,959.999975748E-6,4.96000004,
,,,0.0E-3,4.92000008,
,,,1.0400000E-3,4.88000011,
,,,1.0800000E-3,4.79999971,
,,,1.1199999E-3,4.75999975,
,,,1.1600000E-3,4.71999979,
,,,1.1999999E-3,4.63999987,
,,,1.2400000E-3,4.63999987,
,,,1.2800000E-3,4.51999998,
,,,1.3199999E-3,4.51999998,
,,,1.3600000E-3,4.44000006,
,,,1.4000000E-3,4.40000010,
,,,1.4400000E-3,4.36000013,
,,,1.4800000E-3,4.31999969,
,,,1.5199999E-3,4.23999977,
,,,1.5600000E-3,4.19999981,
,,,1.6000000E-3,4.11999989,
,,,1.6399999E-3,4.07999992,
,,,1.6800000E-3,4.03999996,
,,,1.7199999E-3,4.00000000,
,,,1.7599999E-3,3.95999980,
,,,1.8000000E-3,3.87999988,
,,,1.8399999E-3,3.83999991,
,,,1.8800000E-3,3.75999999,
,,,1.9200000E-3,3.72000003,
,,,1.9600000E-3,3.67999983,
,,,1.9999999E-3,3.63999987,
,,,2.0399999E-3,3.59999990,
,,,2.0800000E-3,3.55999994,
,,,2.1199998E-3,3.51999998,
,,,2.1599999E-3,3.48000002,
,,,2.2000000E-3,3.39999986,
,,,2.2399998E-3,3.35999990,
,,,2.2799999E-3,3.31999993,
,,,2.3200000E-3,3.27999997,
,,,2.3600000E-3,3.24000001,
,,,2.3999999E-3,3.19999981,
,,,2.4400000E-3,3.15999985,
,,,2.4800000E-3,3.11999989,
,,,2.5199999E-3,3.07999992,
,,,2.5599999E-3,3.00000000,
,,,2.6000000E-3,3.00000000,
,,,2.6399998E-3,2.96000004,
,,,2.6799999E-3,2.91999984,
,,,2.71999999E-3,2.87999988,
,,,2.75999983E-3,2.83999991,
,,,2.79999990E-3,2.79999995,
,,,2.83999997E-3,2.72000003,
,,,2.88000004E-3,2.6799998,
,,,2.91999988E-3,2.6799998,
,,,2.95999995E-3,2.6399999,
,,,3.00000003E-3,1.7199999,
,,,3.03999986E-3,1.3199999,
,,,3.07999994E-3,2.6399999,
,,,3.12000001E-3,2.75999999,
,,,3.15999985E-3,2.75999999,
,,,3.19999992E-3,2.79999995,
,,,3.23999999E-3,2.79999995,
,,,3.27999983E-3,2.83999991,
,,,3.31999990E-3,2.87999988,
,,,3.35999997E-3,2.87999988,
,,,3.39999981E-3,2.96000004,
,,,3.43999988E-3,2.96000004,
,,,3.47999996E-3,3.00000000,
,,,3.51999979E-3,3.07999992,
,,,3.55999987E-3,3.07999992,
,,,3.59999994E-3,3.07999992,
,,,3.64000001E-3,3.15999985,
,,,3.67999985E-3,3.15999985,
,,,3.71999992E-3,3.19999981,
,,,3.75999999E-3,3.24000001,
,,,3.79999983E-3,3.31999993,
,,,3.83999990E-3,3.31999993,
,,,3.87999997E-3,3.31999993,
,,,3.92000005E-3,3.35999990,
,,,3.95999989E-3,3.39999986,
,,,3.99999972E-3,3.43999982,
,,,4.04000003E-3,3.48000002,
,,,4.07999987E-3,3.51999998,
,,,4.11999971E-3,3.55999994,
,,,4.16000001E-3,3.59999990,
,,,4.19999985E-3,3.63999987,
,,,4.23999969E-3,3.67999983,
,,,4.27999999E-3,3.67999983,
,,,4.31999983E-3,3.75999999,
,,,4.35999967E-3,3.79999995,
,,,4.39999998E-3,3.83999991,
,,,4.43999982E-3,3.87999988,
,,,4.47999965E-3,3.91999984,
,,,4.51999996E-3,3.91999984,
,,,4.55999980E-3,3.95999980,
,,,4.60000010E-3,4.00000000,
,,,4.63999994E-3,4.03999996,
,,,4.67999978E-3,4.07999992,
,,,4.72000008E-3,4.11999989,
,,,4.75999992E-3,4.19999981,
,,,4.79999976E-3,4.15999985,
,,,4.84000007E-3,4.23999977,
,,,4.87999991E-3,4.27999973,
,,,4.91999974E-3,4.31999969,
,,,4.96000005E-3,4.36000013,
,,,4.99999989E-3,4.40000010,
,,,5.03999973E-3,4.44000006,
,,,5.08000003E-3,4.44000006,
,,,5.11999987E-3,4.48000002,
,,,5.15999971E-3,4.51999998,
,,,5.20000001E-3,4.51999998,
,,,5.23999985E-3,4.55999994,
,,,5.27999969E-3,4.63999987,
,,,5.32000000E-3,4.63999987,
,,,5.35999984E-3,4.63999987,
,,,5.39999967E-3,4.71999979,
,,,5.43999998E-3,4.67999983,
,,,5.47999982E-3,4.71999979,
,,,5.51999966E-3,4.71999979,
,,,5.55999996E-3,4.75999975,
,,,5.59999980E-3,4.75999975,
,,,5.63999964E-3,4.79999971,
,,,5.67999994E-3,4.79999971,
,,,5.71999978E-3,4.83999968,
,,,5.76000009E-3,4.83999968,
,,,5.79999993E-3,4.83999968,
,,,5.83999977E-3,4.88000011,
,,,5.88000007E-3,4.83999968,
,,,5.91999991E-3,4.92000008,
,,,5.95999975E-3,4.83999968,
,,,6.00000005E-3,4.96000004,
,,,6.03999989E-3,4.92000008,
,,,6.07999973E-3,4.88000011,
,,,6.12000003E-3,4.83999968,
,,,6.15999987E-3,4.79999971,
,,,6.19999971E-3,4.79999971,
,,,6.24000002E-3,4.75999975,
,,,6.27999986E-3,4.75999975,
,,,6.31999969E-3,4.75999975,
,,,6.36000000E-3,4.71999979,
,,,6.39999984E-3,4.67999983,
,,,6.43999968E-3,4.67999983,
,,,6.47999998E-3,4.63999987,
,,,6.51999982E-3,4.59999990,
,,,6.55999966E-3,4.55999994,
,,,6.59999996E-3,4.51999998,
,,,6.63999980E-3,4.48000002,
,,,6.67999964E-3,4.44000006,
,,,6.71999995E-3,4.44000006,
,,,6.75999979E-3,4.40000010,
,,,6.79999962E-3,4.36000013,
,,,6.83999993E-3,4.31999969,
,,,6.87999977E-3,4.23999977,
,,,6.91999961E-3,4.23999977,
,,,6.95999991E-3,4.19999981,
,,,6.99999975E-3,4.15999985,
,,,7.03999959E-3,4.11999989,
,,,7.07999989E-3,4.03999996,
,,,7.11999973E-3,4.03999996,
,,,7.16000004E-3,4.00000000,
,,,7.19999988E-3,3.95999980,
,,,7.23999972E-3,3.87999988,
,,,7.28000002E-3,3.83999991,
,,,7.31999986E-3,3.79999995,
,,,7.35999970E-3,3.75999999,
,,,7.400000002E-3,3.67999983,
,,,7.439999841E-3,3.63999987,
,,,7.479999680E-3,3.63999987,
,,,7.519999985E-3,3.55999994,
,,,7.559999824E-3,3.55999994,
,,,7.599999662E-3,3.48000002,
,,,7.639999967E-3,3.43999982,
,,,7.679999806E-3,3.39999986,
,,,7.719999645E-3,3.35999990,
,,,7.759999949E-3,3.31999993,
,,,7.799999788E-3,3.27999997,
,,,7.840000093E-3,3.24000001,
,,,7.879999466E-3,3.15999985,
,,,7.919999771E-3,3.11999989,
,,,7.960000075E-3,3.11999989,
,,,7.999999449E-3,3.07999992,
,,,8.039999753E-3,3.00000000,
,,,8.080000058E-3,2.96000004,
,,,8.119999431E-3,2.91999984,
,,,8.159999736E-3,2.87999988,
,,,8.200000040E-3,2.87999988,
,,,8.239999413E-3,2.79999995,
,,,8.279999718E-3,2.79999995,
,,,8.320000023E-3,2.75999999,
,,,8.359999396E-3,2.72000003,
,,,8.399999700E-3,2.6799998,
,,,8.440000005E-3,2.6399999,
,,,8.479999378E-3,2.6399999,
,,,8.519999683E-3,2.5599999,
,,,8.559999987E-3,2.5200000,
,,,8.599999361E-3,2.5200000,
,,,8.639999665E-3,2.4800000,
,,,8.679999970E-3,2.4400001,
,,,8.719999343E-3,2.3999999,
,,,8.759999648E-3,2.3599999,
,,,8.799999952E-3,2.3199999,
,,,8.839999326E-3,2.3199999,
,,,8.879999630E-3,2.3199999,
,,,8.919999935E-3,2.2400000,
,,,8.959999308E-3,2.2400000,
,,,8.999999613E-3,1.4399999,
,,,9.039999917E-3,1.0400000,
,,,9.080000222E-3,2.2400000,
,,,9.119999595E-3,2.2800000,
,,,9.159999900E-3,2.3199999,
,,,9.200000204E-3,2.2800000,
,,,9.239999577E-3,2.3599999,
,,,9.279999882E-3,2.3599999,
,,,9.320000187E-3,2.3999999,
,,,9.359999560E-3,2.3999999,
,,,9.399999864E-3,2.4400001,
,,,9.440000169E-3,2.4400001,
,,,9.479999542E-3,2.5200000,
,,,9.519999847E-3,2.5200000,
,,,9.560000151E-3,2.5200000,
,,,9.599999525E-3,2.5999999,
,,,9.639999829E-3,2.5999999,
,,,9.680000134E-3,2.6399999,
,,,9.719999507E-3,2.6799998,
,,,9.759999812E-3,2.6799998,
,,,9.800000116E-3,2.72000003,
,,,9.839999489E-3,2.72000003,
,,,9.879999794E-3,2.75999999,
,,,9.920000099E-3,2.79999995,
,,,9.959999472E-3,2.83999991,
,,,9.999999776E-3,2.87999988,
,,,10.0400001E-3,2.91999984,
,,,10.0799995E-3,2.96000004,
,,,10.1199998E-3,2.96000004,
,,,10.1600001E-3,3.00000000,
,,,10.1999994E-3,3.03999996,
,,,10.2399997E-3,3.07999992,
,,,10.2800000E-3,3.07999992,
,,,10.3199994E-3,3.11999989,
,,,10.3599997E-3,3.15999985,
,,,10.4000000E-3,3.19999981,
,,,10.4399994E-3,3.24000001,
,,,10.4799997E-3,3.27999997,
,,,10.5200000E-3,3.31999993,
,,,10.5599994E-3,3.35999990,
,,,10.5999997E-3,3.35999990,
,,,10.6400000E-3,3.39999986,
,,,10.6799994E-3,3.39999986,
,,,10.7199997E-3,3.48000002,
,,,10.7600000E-3,3.48000002,
,,,10.7999993E-3,3.51999998,
,,,10.8399997E-3,3.55999994,
,,,10.8800000E-3,3.59999990,
,,,10.9199993E-3,3.59999990,
,,,10.9599996E-3,3.63999987,
,,,10.9999999E-3,3.67999983,
,,,11.0399993E-3,3.72000003,
,,,11.0799996E-3,3.75999999,
,,,11.1199999E-3,3.75999999,
,,,11.1599993E-3,3.79999995,
,,,11.1999996E-3,3.83999991,
,,,11.2399999E-3,3.87999988,
,,,11.2799993E-3,3.87999988,
,,,11.3199996E-3,3.91999984,
,,,11.3599999E-3,3.91999984,
,,,11.3999993E-3,3.91999984,
,,,11.4399996E-3,4.00000000,
,,,11.4799999E-3,4.00000000,
,,,11.5200002E-3,4.03999996,
,,,11.5599995E-3,4.00000000,
,,,11.5999999E-3,4.07999992,
,,,11.6400002E-3,4.07999992,
,,,11.6799995E-3,4.07999992,
,,,11.7199998E-3,4.07999992,
,,,11.7600001E-3,4.07999992,
,,,11.7999995E-3,4.15999985,
,,,11.8399998E-3,4.11999989,
,,,11.8800001E-3,4.11999989,
,,,11.9199995E-3,4.15999985,
,,,11.9599998E-3,4.11999989,
,,,12.0000001E-3,4.23999977,
,,,12.0399995E-3,4.15999985,
,,,12.0799998E-3,4.11999989,
,,,12.1200001E-3,4.07999992,
,,,12.1599995E-3,4.07999992,
,,,12.1999998E-3,4.07999992,
,,,12.2400001E-3,4.03999996,
,,,12.2799994E-3,4.03999996,
,,,12.3199997E-3,4.00000000,
,,,12.3600001E-3,4.00000000,
,,,12.3999994E-3,3.95999980,
,,,12.4399997E-3,3.95999980,
,,,12.4800000E-3,3.95999980,
,,,12.5199994E-3,3.87999988,
,,,12.5599997E-3,3.87999988,
,,,12.6000000E-3,3.79999995,
,,,12.6399994E-3,3.79999995,
,,,12.6799997E-3,3.75999999,
,,,12.7200000E-3,3.75999999,
,,,12.7599994E-3,3.67999983,
,,,12.7999997E-3,3.67999983,
,,,12.8400000E-3,3.67999983,
,,,12.8799994E-3,3.59999990,
,,,12.9199997E-3,3.55999994,
,,,12.9600000E-3,3.51999998,
,,,12.9999993E-3,3.51999998,
,,,13.0399996E-3,3.48000002,
,,,13.0799999E-3,3.43999982,
,,,13.1199993E-3,3.39999986,
,,,13.1599996E-3,3.35999990,
,,,13.1999999E-3,3.31999993,
,,,13.2399993E-3,3.27999997,
,,,13.2799996E-3,3.24000001,
,,,13.3199999E-3,3.19999981,
,,,13.3599993E-3,3.15999985,
,,,13.3999996E-3,3.11999989,
,,,13.4399999E-3,3.07999992,
,,,13.4799993E-3,3.03999996,
,,,13.5199996E-3,3.00000000,
,,,13.5599999E-3,3.00000000,
,,,13.5999992E-3,2.91999984,
,,,13.6399996E-3,2.87999988,
,,,13.6799999E-3,2.87999988,
,,,13.7199992E-3,2.79999995,
,,,13.7599995E-3,2.79999995,
,,,13.7999998E-3,2.75999999,
,,,13.8399992E-3,2.6799998,
,,,13.8799995E-3,2.6799998,
,,,13.9199998E-3,2.6799998,
,,,13.9599992E-3,2.5999999,
,,,13.9999995E-3,2.5599999,
,,,14.0399998E-3,2.5599999,
,,,14.0799992E-3,2.5200000,
,,,14.1199995E-3,2.4800000,
,,,14.1599998E-3,2.4400001,
,,,14.2000001E-3,2.3999999,
,,,14.2399995E-3,2.3999999,
,,,14.2799998E-3,2.3599999,
,,,14.3200001E-3,2.3599999,
,,,14.3599994E-3,2.3199999,
,,,14.3999998E-3,2.2800000,
,,,14.4400001E-3,2.2800000,
,,,14.4799994E-3,2.2000000,
,,,14.5199997E-3,2.2000000,
,,,14.5600000E-3,2.1599998,
,,,14.5999994E-3,2.1199999,
,,,14.6399997E-3,2.1199999,
,,,14.6800000E-3,2.0799999,
,,,14.7199994E-3,2.0400000,
,,,14.7599997E-3,2.0000000,
,,,14.8000000E-3,2.0000000,
,,,14.8399994E-3,2.0000000,
,,,14.8799997E-3,1.9200000,
,,,14.9200000E-3,1.9599999,
,,,14.9599994E-3,1.9200000,
,,,14.9999997E-3,1.2800000,
,,,15.0400000E-3,959.999978542E-3,
,,,15.0799993E-3,1.9599999,
,,,15.1199996E-3,2.0000000,
,,,15.1600000E-3,2.0000000,
,,,15.1999993E-3,2.0400000,
,,,15.2399996E-3,2.0400000,
,,,15.2799999E-3,2.0799999,
,,,15.3199993E-3,2.0799999,
,,,15.3599996E-3,2.1199999,
,,,15.3999999E-3,2.1199999,
,,,15.4399993E-3,2.1599998,
,,,15.4799996E-3,2.1599998,
,,,15.5199999E-3,2.1599998,
,,,15.5599993E-3,2.2000000,
,,,15.5999996E-3,2.2000000,
,,,15.6399999E-3,2.2400000,
,,,15.6800002E-3,2.2400000,
,,,15.7200005E-3,2.2800000,
,,,15.7599989E-3,2.3199999,
,,,15.7999992E-3,2.3599999,
,,,15.8399995E-3,2.3599999,
,,,15.8799998E-3,2.3599999,
,,,15.9200002E-3,2.4400001,
,,,15.9600005E-3,2.4400001,
,,,15.9999989E-3,2.4400001,
,,,16.0399992E-3,2.4800000,
,,,16.0799995E-3,2.5200000,
,,,16.1199998E-3,2.5200000,
,,,16.1600001E-3,2.5200000,
,,,16.2000004E-3,2.5999999,
,,,16.2399989E-3,2.5999999,
,,,16.2799992E-3,2.6399999,
,,,16.3199995E-3,2.6799998,
,,,16.3599998E-3,2.6799998,
,,,16.4000001E-3,2.72000003,
,,,16.4400004E-3,2.75999999,
,,,16.4799988E-3,2.75999999,
,,,16.5199991E-3,2.79999995,
,,,16.5599994E-3,2.83999991,
,,,16.5999997E-3,2.83999991,
,,,16.6400000E-3,2.87999988,
,,,16.6800003E-3,2.91999984,
,,,16.7199988E-3,2.91999984,
,,,16.7599991E-3,2.96000004,
,,,16.7999994E-3,3.00000000,
,,,16.8399997E-3,3.00000000,
,,,16.8800000E-3,3.03999996,
,,,16.9200003E-3,3.07999992,
,,,16.9599988E-3,3.11999989,
,,,16.9999991E-3,3.11999989,
,,,17.0399994E-3,3.15999985,
,,,17.0799997E-3,3.19999981,
,,,17.1200000E-3,3.19999981,
,,,17.1600003E-3,3.24000001,
,,,17.1999987E-3,3.24000001,
,,,17.2399990E-3,3.27999997,
,,,17.2799993E-3,3.27999997,
,,,17.3199996E-3,3.31999993,
,,,17.3599999E-3,3.31999993,
,,,17.4000002E-3,3.35999990,
,,,17.4399987E-3,3.35999990,
,,,17.4799990E-3,3.35999990,
,,,17.5199993E-3,3.35999990,
,,,17.5599996E-3,3.39999986,
,,,17.5999999E-3,3.39999986,
,,,17.6400002E-3,3.43999982,
,,,17.6799987E-3,3.48000002,
,,,17.7199990E-3,3.43999982,
,,,17.7599993E-3,3.48000002,
,,,17.7999996E-3,3.48000002,
,,,17.8399999E-3,3.43999982,
,,,17.8800002E-3,3.48000002,
,,,17.9199986E-3,3.51999998,
,,,17.9599989E-3,3.48000002,
,,,17.9999992E-3,3.55999994,
,,,18.0399995E-3,3.48000002,
,,,18.0799998E-3,3.51999998,
,,,18.1200001E-3,3.48000002,
,,,18.1600004E-3,3.48000002,
,,,18.1999989E-3,3.48000002,
,,,18.2399992E-3,3.39999986,
,,,18.2799995E-3,3.39999986,
,,,18.3199998E-3,3.39999986,
,,,18.3600001E-3,3.35999990,
,,,18.4000004E-3,3.35999990,
,,,18.4399989E-3,3.35999990,
,,,18.4799992E-3,3.31999993,
,,,18.5199995E-3,3.27999997,
,,,18.5599998E-3,3.27999997,
,,,18.6000001E-3,3.24000001,
,,,18.6400004E-3,3.19999981,
,,,18.6799988E-3,3.15999985,
,,,18.7199991E-3,3.15999985,
,,,18.7599994E-3,3.07999992,
,,,18.7999997E-3,3.11999989,
,,,18.8400000E-3,3.07999992,
,,,18.8800003E-3,3.03999996,
,,,18.9199988E-3,3.00000000,
,,,18.9599991E-3,3.00000000,
,,,18.9999994E-3,2.91999984,
,,,19.0399997E-3,2.91999984,
,,,19.0800000E-3,2.87999988,
,,,19.1200003E-3,2.83999991,
,,,19.1599987E-3,2.79999995,
,,,19.1999990E-3,2.79999995,
,,,19.2399994E-3,2.75999999,
,,,19.2799997E-3,2.6799998,
,,,19.3200000E-3,2.6799998,
,,,19.3600003E-3,2.6799998,
,,,19.3999987E-3,2.5999999,
,,,19.4399990E-3,2.5999999,
,,,19.4799993E-3,2.5599999,
,,,19.5199996E-3,2.5200000,
,,,19.5599999E-3,2.4800000,
,,,19.6000002E-3,2.4800000,
,,,19.6399987E-3,2.4400001,
,,,19.6799990E-3,2.3999999,
,,,19.7199993E-3,2.3999999,
,,,19.7599996E-3,2.3599999,
,,,19.7999999E-3,2.3199999,
,,,19.8400002E-3,2.2800000,
,,,19.8799986E-3,2.2400000,
,,,19.9199989E-3,2.2400000,
,,,19.9599992E-3,2.2000000,
,,,19.9999996E-3,2.1599998,
,,,20.0399999E-3,2.1199999,
,,,20.0800002E-3,2.0799999,
,,,20.11999860E-3,2.0799999,
,,,20.15999891E-3,2.0799999,
,,,20.19999921E-3,2.0400000,
,,,20.23999952E-3,2.0000000,
,,,20.27999982E-3,2.0000000,
,,,20.32000013E-3,1.9599999,
,,,20.35999857E-3,1.9599999,
,,,20.39999887E-3,1.9200000,
,,,20.43999918E-3,1.9200000,
,,,20.47999948E-3,1.8800000,
,,,20.51999979E-3,1.8399999,
,,,20.56000009E-3,1.8399999,
,,,20.60000040E-3,1.8399999,
,,,20.63999884E-3,1.8000000,
,,,20.67999914E-3,1.7600000,
,,,20.71999945E-3,1.7199999,
,,,20.75999975E-3,1.7199999,
,,,20.80000006E-3,1.7199999,
,,,20.84000036E-3,1.6799999,
,,,20.87999880E-3,1.6400000,
,,,20.91999911E-3,1.6400000,
,,,20.95999941E-3,1.5999999,
,,,20.99999972E-3,1.0799999,
,,,21.04000002E-3,759.999990463E-3,
,,,21.08000033E-3,1.5999999,
,,,21.11999877E-3,1.6799999,
,,,21.15999907E-3,1.6400000,
,,,21.19999938E-3,1.6799999,
,,,21.23999968E-3,1.7199999,
,,,21.27999999E-3,1.6799999,
,,,21.32000029E-3,1.7199999,
,,,21.35999873E-3,1.7600000,
,,,21.39999904E-3,1.7600000,
,,,21.43999934E-3,1.7600000,
,,,21.47999965E-3,1.8000000,
,,,21.51999995E-3,1.8399999,
,,,21.56000026E-3,1.8399999,
,,,21.59999870E-3,1.8800000,
,,,21.63999900E-3,1.8800000,
,,,21.67999931E-3,1.8800000,
,,,21.71999961E-3,1.9200000,
,,,21.75999992E-3,1.9200000,
,,,21.80000022E-3,1.9599999,
,,,21.83999866E-3,2.0000000,
,,,21.87999897E-3,2.0000000,
,,,21.91999927E-3,2.0000000,
,,,21.95999958E-3,2.0400000,
,,,21.99999988E-3,2.0400000,
,,,22.04000019E-3,2.0799999,
,,,22.07999863E-3,2.1199999,
,,,22.11999893E-3,2.1199999,
,,,22.15999924E-3,2.1599998,
,,,22.19999954E-3,2.1599998,
,,,22.23999985E-3,2.1599998,
,,,22.28000015E-3,2.2000000,
,,,22.31999859E-3,2.2400000,
,,,22.35999890E-3,2.2800000,
,,,22.39999920E-3,2.2800000,
,,,22.43999951E-3,2.3199999,
,,,22.47999981E-3,2.3199999,
,,,22.52000012E-3,2.3599999,
,,,22.55999856E-3,2.3999999,
,,,22.59999886E-3,2.3999999,
,,,22.63999917E-3,2.4400001,
,,,22.67999947E-3,2.4400001,
,,,22.71999978E-3,2.4400001,
,,,22.76000008E-3,2.4800000,
,,,22.79999852E-3,2.5599999,
,,,22.83999883E-3,2.5200000,
,,,22.87999913E-3,2.5599999,
,,,22.91999944E-3,2.5999999,
,,,22.95999974E-3,2.5999999,
,,,23.00000004E-3,2.6399999,
,,,23.04000035E-3,2.6399999,
,,,23.07999879E-3,2.6799998,
,,,23.11999910E-3,2.6799998,
,,,23.15999940E-3,2.6799998,
,,,23.19999970E-3,2.72000003,
,,,23.24000001E-3,2.72000003,
,,,23.28000031E-3,2.75999999,
,,,23.31999876E-3,2.75999999,
,,,23.35999906E-3,2.79999995,
,,,23.39999937E-3,2.79999995,
,,,23.43999967E-3,2.83999991,
,,,23.47999997E-3,2.83999991,
,,,23.52000028E-3,2.87999988,
,,,23.55999872E-3,2.83999991,
,,,23.59999903E-3,2.87999988,
,,,23.63999933E-3,2.87999988,
,,,23.67999963E-3,2.91999984,
,,,23.71999994E-3,2.87999988,
,,,23.76000024E-3,2.91999984,
,,,23.79999869E-3,2.96000004,
,,,23.83999899E-3,2.96000004,
,,,23.87999929E-3,2.91999984,
,,,23.91999960E-3,2.96000004,
,,,23.95999990E-3,2.96000004,
,,,24.00000021E-3,3.00000000,
,,,24.03999865E-3,2.96000004,
,,,24.07999896E-3,2.96000004,
,,,24.11999926E-3,2.91999984,
,,,24.15999956E-3,2.91999984,
,,,24.19999987E-3,2.87999988,
,,,24.24000017E-3,2.87999988,
,,,24.27999862E-3,2.87999988,
,,,24.31999892E-3,2.87999988,
,,,24.35999922E-3,2.87999988,
,,,24.39999953E-3,2.83999991,
,,,24.43999983E-3,2.79999995,
,,,24.48000014E-3,2.79999995,
,,,24.51999858E-3,2.75999999,
,,,24.55999888E-3,2.72000003,
,,,24.59999919E-3,2.72000003,
,,,24.63999949E-3,2.6799998,
,,,24.67999980E-3,2.6799998,
,,,24.72000010E-3,2.6399999,
,,,24.75999855E-3,2.6799998,
,,,24.79999885E-3,2.5999999,
,,,24.83999915E-3,2.5599999,
,,,24.87999946E-3,2.5599999,
,,,24.91999976E-3,2.5599999,
,,,24.96000007E-3,2.5200000,
,,,24.99999851E-3,2.4800000,
,,,25.03999881E-3,2.4800000,
,,,25.07999912E-3,2.4400001,
,,,25.11999942E-3,2.4400001,
,,,25.15999973E-3,2.3999999,
,,,25.20000003E-3,2.3599999,
,,,25.23999847E-3,2.3599999,
,,,25.27999878E-3,2.3199999,
,,,25.31999908E-3,2.3199999,
,,,25.35999939E-3,2.2800000,
,,,25.39999969E-3,2.2800000,
,,,25.44000000E-3,2.2400000,
,,,25.47999844E-3,2.1599998,
,,,25.51999874E-3,2.1599998,
,,,25.55999905E-3,2.1199999,
,,,25.59999935E-3,2.1199999,
,,,25.63999966E-3,2.0799999,
,,,25.67999996E-3,2.0400000,
,,,25.72000027E-3,2.0400000,
,,,25.75999871E-3,2.0000000,
,,,25.79999901E-3,2.0000000,
,,,25.83999932E-3,2.0000000,
,,,25.87999962E-3,1.9599999,
,,,25.91999993E-3,1.9599999,
,,,25.96000023E-3,1.8800000,
,,,25.99999867E-3,1.8800000,
,,,26.03999898E-3,1.8399999,
,,,26.07999928E-3,1.8399999,
,,,26.11999959E-3,1.8399999,
,,,26.15999989E-3,1.8000000,
,,,26.20000020E-3,1.7600000,
,,,26.23999864E-3,1.7600000,
,,,26.27999894E-3,1.7199999,
,,,26.31999925E-3,1.7199999,
,,,26.35999955E-3,1.6400000,
