Data/T2/LMO_AfterEaster.csv

Record Length,2500,Points,-3.00000003E-3,0.0,
Sample Interval,99.999997474E-6,s,-2.89999996E-3,0.0,
Trigger Point,30.00000102,Samples,-2.80000013E-3,0.0,
,,,-2.7000001E-3,0.0,
,,,-2.6000000E-3,0.0,
,,,-2.4999999E-3,0.0,
Source,CH1,,-2.4000001E-3,39.99999911E-3,
Vertical Units,Volts,,-2.3000001E-3,39.99999911E-3,
Vertical Scale,1.000000,,-2.2000000E-3,0.0,
Vertical Offset,0,,-2.1000002E-3,39.99999911E-3,
Horizontal Units,s,,-2.0000001E-3,39.99999911E-3,
Horizontal Scale,24.99999937E-3,,-1.9000000E-3,0.0,
Pt Fmt,Y,,-1.8000001E-3,0.0,
Yzero,-2.3600000,,-1.7000000E-3,39.99999911E-3,
Probe Atten,1.000000,,-1.6000001E-3,0.0,
,,,-1.5000000E-3,0.0,
Note,TBS 1052B - 10:59:16   30/04/2019,,-1.4000001E-3,0.0,
,,,-1.3000001E-3,0.0,
,,,-1.2000001E-3,39.99999911E-3,
,,,-1.1000001E-3,39.99999911E-3,
,,,-1.0000000E-3,0.0,
,,,-900.000100955E-6,39.99999911E-3,
,,,-800.000096206E-6,0.0,
,,,-700.000091456E-6,0.0,
,,,-600.000086706E-6,39.99999911E-3,
,,,-500.000081956E-6,39.99999911E-3,
,,,-400.00007721E-6,39.99999911E-3,
,,,-300.00010156E-6,39.99999911E-3,
,,,-200.00009681E-6,39.99999911E-3,
,,,-100.0000993E-6,39.99999911E-3,
,,,-101.8634062E-12,3.39999986,
,,,99.999895610E-6,5.51999998,
,,,199.99989308E-6,5.44000006,
,,,299.99989783E-6,5.44000006,
,,,399.99990258E-6,5.40000010,
,,,499.999907333E-6,5.31999969,
,,,599.999912083E-6,5.23999977,
,,,699.999858625E-6,5.23999977,
,,,799.999863375E-6,5.15999985,
,,,899.999868125E-6,5.11999989,
,,,0.0E-3,5.07999992,
,,,1.0999999E-3,5.00000000,
,,,1.1999998E-3,4.92000008,
,,,1.2999999E-3,4.83999968,
,,,1.3999998E-3,4.79999971,
,,,1.4999999E-3,4.71999979,
,,,1.5999998E-3,4.63999987,
,,,1.6999999E-3,4.55999994,
,,,1.7999999E-3,4.51999998,
,,,1.8999998E-3,4.44000006,
,,,1.9999999E-3,4.36000013,
,,,2.0999999E-3,4.27999973,
,,,2.1999998E-3,4.19999981,
,,,2.2999998E-3,4.11999989,
,,,2.3999999E-3,4.03999996,
,,,2.4999999E-3,3.95999980,
,,,2.5999998E-3,3.87999988,
,,,2.6999998E-3,3.79999995,
,,,2.79999990E-3,3.72000003,
,,,2.89999973E-3,3.63999987,
,,,2.99999979E-3,3.59999990,
,,,3.09999986E-3,3.51999998,
,,,3.19999992E-3,3.43999982,
,,,3.29999975E-3,3.39999986,
,,,3.39999981E-3,3.27999997,
,,,3.49999988E-3,3.19999981,
,,,3.59999971E-3,3.15999985,
,,,3.69999977E-3,3.11999989,
,,,3.79999983E-3,3.07999992,
,,,3.89999989E-3,3.00000000,
,,,3.99999972E-3,2.96000004,
,,,4.10000002E-3,2.87999988,
,,,4.19999985E-3,2.87999988,
,,,4.29999968E-3,2.83999991,
,,,4.39999998E-3,2.75999999,
,,,4.49999981E-3,2.72000003,
,,,4.59999964E-3,2.6799998,
,,,4.69999993E-3,2.5999999,
,,,4.79999976E-3,2.5999999,
,,,4.89999959E-3,2.5200000,
,,,4.99999989E-3,2.4800000,
,,,5.09999972E-3,2.4800000,
,,,5.19999955E-3,2.4400001,
,,,5.29999984E-3,2.3999999,
,,,5.39999967E-3,2.3599999,
,,,5.49999997E-3,2.3199999,
,,,5.59999980E-3,2.2800000,
,,,5.69999963E-3,2.2800000,
,,,5.79999993E-3,2.2400000,
,,,5.89999976E-3,2.2000000,
,,,5.99999959E-3,1.000000,
,,,6.09999988E-3,2.2800000,
,,,6.19999971E-3,2.2800000,
,,,6.29999954E-3,2.3199999,
,,,6.39999984E-3,2.3599999,
,,,6.49999967E-3,2.3599999,
,,,6.59999996E-3,2.3999999,
,,,6.69999979E-3,2.3999999,
,,,6.79999962E-3,2.4400001,
,,,6.89999992E-3,2.4400001,
,,,6.99999975E-3,2.4800000,
,,,7.09999958E-3,2.4800000,
,,,7.19999988E-3,2.5200000,
,,,7.29999971E-3,2.5599999,
,,,7.399999537E-3,2.5999999,
,,,7.499999832E-3,2.6399999,
,,,7.599999662E-3,2.6399999,
,,,7.699999493E-3,2.6799998,
,,,7.799999788E-3,2.72000003,
,,,7.899999619E-3,2.72000003,
,,,7.999999449E-3,2.75999999,
,,,8.099999279E-3,2.79999995,
,,,8.200000040E-3,2.83999991,
,,,8.299999870E-3,2.91999984,
,,,8.399999700E-3,2.91999984,
,,,8.499999531E-3,3.00000000,
,,,8.599999361E-3,3.00000000,
,,,8.700000122E-3,3.03999996,
,,,8.799999952E-3,3.07999992,
,,,8.899999782E-3,3.15999985,
,,,8.999999613E-3,3.15999985,
,,,9.099999443E-3,3.24000001,
,,,9.199999273E-3,3.27999997,
,,,9.300000034E-3,3.31999993,
,,,9.399999864E-3,3.39999986,
,,,9.499999695E-3,3.43999982,
,,,9.599999525E-3,3.48000002,
,,,9.699999355E-3,3.55999994,
,,,9.800000116E-3,3.55999994,
,,,9.899999946E-3,3.63999987,
,,,9.999999776E-3,3.67999983,
,,,10.0999996E-3,3.72000003,
,,,10.1999994E-3,3.75999999,
,,,10.2999993E-3,3.83999991,
,,,10.4000000E-3,3.83999991,
,,,10.4999999E-3,3.91999984,
,,,10.5999997E-3,3.95999980,
,,,10.6999995E-3,4.00000000,
,,,10.7999993E-3,4.00000000,
,,,10.8999992E-3,4.07999992,
,,,10.9999999E-3,4.07999992,
,,,11.0999998E-3,4.15999985,
,,,11.1999996E-3,4.15999985,
,,,11.2999994E-3,4.15999985,
,,,11.3999993E-3,4.19999981,
,,,11.5000000E-3,4.19999981,
,,,11.5999999E-3,4.19999981,
,,,11.6999997E-3,4.23999977,
,,,11.7999995E-3,4.23999977,
,,,11.8999993E-3,4.23999977,
,,,11.9999992E-3,4.23999977,
,,,12.0999999E-3,4.19999981,
,,,12.1999998E-3,4.15999985,
,,,12.2999996E-3,4.15999985,
,,,12.3999994E-3,4.11999989,
,,,12.4999993E-3,4.07999992,
,,,12.6000000E-3,4.03999996,
,,,12.6999998E-3,4.03999996,
,,,12.7999997E-3,3.95999980,
,,,12.8999995E-3,3.91999984,
,,,12.9999993E-3,3.87999988,
,,,13.0999992E-3,3.83999991,
,,,13.1999999E-3,3.79999995,
,,,13.2999998E-3,3.72000003,
,,,13.3999996E-3,3.67999983,
,,,13.4999994E-3,3.59999990,
,,,13.5999992E-3,3.55999994,
,,,13.7000000E-3,3.51999998,
,,,13.7999998E-3,3.43999982,
,,,13.8999997E-3,3.39999986,
,,,13.9999995E-3,3.31999993,
,,,14.0999993E-3,3.27999997,
,,,14.1999992E-3,3.19999981,
,,,14.2999999E-3,3.15999985,
,,,14.3999998E-3,3.07999992,
,,,14.4999996E-3,3.03999996,
,,,14.5999994E-3,2.96000004,
,,,14.6999992E-3,2.91999984,
,,,14.7999991E-3,2.83999991,
,,,14.8999998E-3,2.79999995,
,,,14.9999997E-3,2.75999999,
,,,15.0999995E-3,2.6799998,
,,,15.1999993E-3,2.6399999,
,,,15.2999992E-3,2.5999999,
,,,15.3999999E-3,2.5200000,
,,,15.4999997E-3,2.4800000,
,,,15.5999996E-3,2.4800000,
,,,15.6999994E-3,2.3999999,
,,,15.7999992E-3,2.3599999,
,,,15.8999991E-3,2.3199999,
,,,15.9999989E-3,2.2800000,
,,,16.0999987E-3,2.2400000,
,,,16.1999986E-3,2.2000000,
,,,16.3000003E-3,2.1599998,
,,,16.4000001E-3,2.1199999,
,,,16.4999999E-3,2.0799999,
,,,16.5999997E-3,2.0400000,
,,,16.6999996E-3,2.0000000,
,,,16.7999994E-3,2.0000000,
,,,16.8999992E-3,1.9599999,
,,,16.9999991E-3,1.9200000,
,,,17.0999989E-3,1.9200000,
,,,17.1999987E-3,1.8800000,
,,,17.2999986E-3,1.8800000,
,,,17.4000002E-3,1.8399999,
,,,17.5000001E-3,1.8000000,
,,,17.5999999E-3,1.8000000,
,,,17.6999997E-3,1.7600000,
,,,17.7999996E-3,1.7199999,
,,,17.8999994E-3,1.7199999,
,,,17.9999992E-3,799.999952316E-3,
,,,18.0999991E-3,1.8000000,
,,,18.1999989E-3,1.7600000,
,,,18.2999987E-3,1.8000000,
,,,18.3999985E-3,1.8000000,
,,,18.5000002E-3,1.8000000,
,,,18.6000001E-3,1.8399999,
,,,18.6999999E-3,1.8800000,
,,,18.7999997E-3,1.8800000,
,,,18.8999996E-3,1.8800000,
,,,18.9999994E-3,1.9200000,
,,,19.0999992E-3,1.9200000,
,,,19.1999990E-3,1.9599999,
,,,19.2999989E-3,1.9599999,
,,,19.3999987E-3,2.0000000,
,,,19.4999985E-3,2.0000000,
,,,19.6000002E-3,2.0400000,
,,,19.7000001E-3,2.0799999,
,,,19.7999999E-3,2.1199999,
,,,19.8999997E-3,2.1199999,
,,,19.9999996E-3,2.1599998,
,,,20.09999938E-3,2.2000000,
,,,20.19999921E-3,2.2400000,
,,,20.29999904E-3,2.2400000,
,,,20.39999887E-3,2.2800000,
,,,20.49999870E-3,2.2800000,
,,,20.59999853E-3,2.3199999,
,,,20.70000023E-3,2.3599999,
,,,20.80000006E-3,2.3999999,
,,,20.89999989E-3,2.4400001,
,,,20.99999972E-3,2.4800000,
,,,21.09999955E-3,2.5200000,
,,,21.19999938E-3,2.5999999,
,,,21.29999921E-3,2.5999999,
,,,21.39999904E-3,2.6399999,
,,,21.49999887E-3,2.6799998,
,,,21.59999870E-3,2.75999999,
,,,21.69999853E-3,2.75999999,
,,,21.80000022E-3,2.79999995,
,,,21.90000005E-3,2.87999988,
,,,21.99999988E-3,2.87999988,
,,,22.09999971E-3,2.91999984,
,,,22.19999954E-3,2.96000004,
,,,22.29999937E-3,3.00000000,
,,,22.39999920E-3,3.03999996,
,,,22.49999903E-3,3.07999992,
,,,22.59999886E-3,3.11999989,
,,,22.69999869E-3,3.11999989,
,,,22.79999852E-3,3.15999985,
,,,22.90000021E-3,3.19999981,
,,,23.00000004E-3,3.24000001,
,,,23.09999987E-3,3.27999997,
,,,23.19999970E-3,3.27999997,
,,,23.29999954E-3,3.27999997,
,,,23.39999937E-3,3.31999993,
,,,23.49999920E-3,3.31999993,
,,,23.59999903E-3,3.31999993,
,,,23.69999886E-3,3.35999990,
,,,23.79999869E-3,3.35999990,
,,,23.89999852E-3,3.35999990,
,,,24.00000021E-3,3.35999990,
,,,24.10000004E-3,3.31999993,
,,,24.19999987E-3,3.31999993,
,,,24.29999970E-3,3.31999993,
,,,24.39999953E-3,3.27999997,
,,,24.49999936E-3,3.27999997,
,,,24.59999919E-3,3.19999981,
,,,24.69999902E-3,3.15999985,
,,,24.79999885E-3,3.15999985,
,,,24.89999868E-3,3.15999985,
,,,24.99999851E-3,3.07999992,
,,,25.09999834E-3,3.03999996,
,,,25.20000003E-3,3.03999996,
,,,25.29999986E-3,3.00000000,
,,,25.39999969E-3,2.96000004,
,,,25.49999952E-3,2.87999988,
,,,25.59999935E-3,2.83999991,
,,,25.69999918E-3,2.79999995,
,,,25.79999901E-3,2.72000003,
,,,25.89999884E-3,2.72000003,
,,,25.99999867E-3,2.6399999,
,,,26.09999850E-3,2.5999999,
,,,26.19999833E-3,2.5599999,
,,,26.30000003E-3,2.4800000,
,,,26.39999986E-3,2.4800000,
,,,26.49999969E-3,2.4400001,
,,,26.59999952E-3,2.3999999,
,,,26.69999935E-3,2.3199999,
,,,26.79999918E-3,2.2800000,
,,,26.89999901E-3,2.2400000,
,,,26.99999884E-3,2.2000000,
,,,27.09999867E-3,2.1599998,
,,,27.19999850E-3,2.1199999,
,,,27.29999833E-3,2.0799999,
,,,27.40000002E-3,2.0400000,
,,,27.49999985E-3,2.0000000,
,,,27.59999968E-3,1.9599999,
,,,27.69999951E-3,1.9200000,
,,,27.79999934E-3,1.9200000,
,,,27.89999917E-3,1.8800000,
,,,27.99999900E-3,1.8399999,
,,,28.09999883E-3,1.8000000,
,,,28.19999866E-3,1.8000000,
,,,28.29999849E-3,1.7600000,
,,,28.39999832E-3,1.7600000,
,,,28.50000001E-3,1.6799999,
,,,28.59999985E-3,1.6799999,
,,,28.69999968E-3,1.6799999,
,,,28.79999951E-3,1.5999999,
,,,28.89999934E-3,1.6400000,
,,,28.99999917E-3,1.5999999,
,,,29.09999900E-3,1.5599999,
,,,29.19999883E-3,1.5599999,
,,,29.29999866E-3,1.5200000,
,,,29.39999849E-3,1.5200000,
,,,29.49999832E-3,1.4800000,
,,,29.60000001E-3,1.4800000,
,,,29.69999984E-3,1.4399999,
,,,29.79999967E-3,1.4399999,
,,,29.89999950E-3,1.4399999,
,,,29.99999933E-3,639.999985695E-3,
,,,30.09999916E-3,1.4800000,
,,,30.19999899E-3,1.4800000,
,,,30.29999882E-3,1.4800000,
,,,30.39999865E-3,1.5200000,
,,,30.49999848E-3,1.5200000,
,,,30.59999831E-3,1.5200000,
,,,30.70000000E-3,1.5599999,
,,,30.79999983E-3,1.5599999,
,,,30.89999966E-3,1.5599999,
,,,30.99999949E-3,1.5999999,
,,,31.09999932E-3,1.6400000,
,,,31.19999915E-3,1.5999999,
,,,31.30000085E-3,1.6400000,
,,,31.39999881E-3,1.6799999,
,,,31.50000051E-3,1.6799999,
,,,31.59999847E-3,1.7199999,
,,,31.70000017E-3,1.7199999,
,,,31.79999813E-3,1.7600000,
,,,31.89999983E-3,1.7600000,
,,,31.99999779E-3,1.8000000,
,,,32.09999949E-3,1.8000000,
,,,32.19999745E-3,1.8000000,
,,,32.29999915E-3,1.8399999,
,,,32.40000084E-3,1.8800000,
,,,32.49999881E-3,1.8800000,
,,,32.60000050E-3,1.9200000,
,,,32.69999847E-3,1.9599999,
,,,32.80000016E-3,2.0000000,
,,,32.89999813E-3,2.0000000,
,,,32.99999982E-3,2.0400000,
,,,33.09999779E-3,2.0400000,
,,,33.19999948E-3,2.0799999,
,,,33.29999745E-3,2.1199999,
,,,33.39999914E-3,2.1599998,
,,,33.50000083E-3,2.2000000,
,,,33.59999880E-3,2.2400000,
,,,33.70000049E-3,2.2400000,
,,,33.79999846E-3,2.2800000,
,,,33.90000015E-3,2.3199999,
,,,33.99999812E-3,2.3599999,
,,,34.09999982E-3,2.3999999,
,,,34.19999778E-3,2.3999999,
,,,34.29999948E-3,2.4800000,
,,,34.39999744E-3,2.4800000,
,,,34.49999914E-3,2.4800000,
,,,34.60000083E-3,2.5599999,
,,,34.69999880E-3,2.5200000,
,,,34.80000049E-3,2.5999999,
,,,34.89999846E-3,2.5999999,
,,,35.00000015E-3,2.5999999,
,,,35.09999812E-3,2.6399999,
,,,35.19999981E-3,2.6399999,
,,,35.29999778E-3,2.6799998,
,,,35.39999947E-3,2.6799998,
,,,35.49999744E-3,2.6799998,
,,,35.59999913E-3,2.6799998,
,,,35.70000082E-3,2.72000003,
,,,35.79999879E-3,2.72000003,
,,,35.90000048E-3,2.72000003,
,,,35.99999845E-3,2.75999999,
,,,36.10000014E-3,2.72000003,
,,,36.19999811E-3,2.6799998,
,,,36.29999980E-3,2.6799998,
,,,36.39999777E-3,2.6799998,
,,,36.49999946E-3,2.6399999,
,,,36.59999743E-3,2.5999999,
,,,36.69999912E-3,2.5999999,
,,,36.80000082E-3,2.5999999,
,,,36.89999878E-3,2.5599999,
,,,37.00000048E-3,2.4800000,
,,,37.09999844E-3,2.4800000,
,,,37.20000014E-3,2.4800000,
,,,37.29999810E-3,2.3999999,
,,,37.39999980E-3,2.3999999,
,,,37.49999776E-3,2.3199999,
,,,37.59999946E-3,2.2800000,
,,,37.69999743E-3,2.2800000,
,,,37.79999912E-3,2.2400000,
,,,37.89999709E-3,2.2000000,
,,,37.99999878E-3,2.2000000,
,,,38.10000047E-3,2.1199999,
,,,38.19999844E-3,2.0799999,
,,,38.30000013E-3,2.0400000,
,,,38.39999810E-3,2.0000000,
,,,38.49999979E-3,2.0000000,
,,,38.59999776E-3,1.9599999,
,,,38.69999945E-3,1.9200000,
,,,38.79999742E-3,1.8399999,
,,,38.89999911E-3,1.8399999,
,,,38.99999708E-3,1.8000000,
,,,39.09999877E-3,1.8000000,
,,,39.20000046E-3,1.7600000,
,,,39.29999843E-3,1.7199999,
,,,39.40000013E-3,1.6799999,
,,,39.49999809E-3,1.6400000,
,,,39.59999979E-3,1.5999999,
,,,39.69999775E-3,1.5999999,
,,,39.79999945E-3,1.5200000,
,,,39.89999741E-3,1.5599999,
,,,39.99999911E-3,1.5200000,
,,,40.09999707E-3,1.5200000,
,,,40.19999877E-3,1.4800000,
,,,40.30000046E-3,1.4399999,
,,,40.39999843E-3,1.4399999,
,,,40.50000012E-3,1.4399999,
,,,40.59999809E-3,1.4000000,
,,,40.69999978E-3,1.4000000,
,,,40.79999775E-3,1.3600000,
,,,40.89999944E-3,1.3199999,
,,,40.99999741E-3,1.2800000,
,,,41.09999910E-3,1.2800000,
,,,41.19999707E-3,1.2800000,
,,,41.29999876E-3,1.2800000,
,,,41.40000045E-3,1.2400000,
,,,41.49999842E-3,1.1999999,
,,,41.60000011E-3,1.1999999,
,,,41.69999808E-3,1.1999999,
,,,41.79999977E-3,1.1200000,
,,,41.89999774E-3,1.1600000,
,,,41.99999943E-3,519.999980927E-3,
,,,42.09999740E-3,1.2400000,
,,,42.19999909E-3,1.1999999,
,,,42.29999706E-3,1.1999999,
,,,42.39999875E-3,1.2800000,
,,,42.50000045E-3,1.2800000,
,,,42.59999841E-3,1.2400000,
,,,42.70000011E-3,1.2800000,
,,,42.79999807E-3,1.2800000,
,,,42.89999977E-3,1.3199999,
,,,42.99999774E-3,1.3199999,
,,,43.09999943E-3,1.3199999,
,,,43.19999740E-3,1.3600000,
,,,43.29999909E-3,1.3199999,
,,,43.39999706E-3,1.3600000,
,,,43.49999875E-3,1.4000000,
,,,43.60000044E-3,1.4000000,
,,,43.69999841E-3,1.4000000,
,,,43.80000010E-3,1.4399999,
,,,43.89999807E-3,1.4399999,
,,,43.99999976E-3,1.4399999,
,,,44.09999773E-3,1.4800000,
,,,44.19999942E-3,1.4800000,
,,,44.29999739E-3,1.5200000,
,,,44.39999908E-3,1.5200000,
,,,44.49999705E-3,1.5599999,
,,,44.59999874E-3,1.5599999,
,,,44.70000044E-3,1.5999999,
,,,44.79999840E-3,1.5999999,
,,,44.90000010E-3,1.6400000,
,,,44.99999806E-3,1.6799999,
,,,45.09999976E-3,1.7199999,
,,,45.19999772E-3,1.7199999,
,,,45.29999942E-3,1.7600000,
,,,45.39999738E-3,1.8000000,
,,,45.49999908E-3,1.8000000,
,,,45.59999704E-3,1.8000000,
,,,45.69999874E-3,1.8000000,
,,,45.80000043E-3,1.8800000,
,,,45.89999840E-3,1.8800000,
,,,46.00000009E-3,1.9200000,
,,,46.09999806E-3,1.9599999,
,,,46.19999975E-3,1.9599999,
,,,46.29999772E-3,1.9599999,
,,,46.39999941E-3,2.0000000,
,,,46.49999738E-3,2.0400000,
,,,46.59999907E-3,2.0400000,
,,,46.69999704E-3,2.0799999,
,,,46.79999873E-3,2.0799999,
,,,46.90000042E-3,2.1599998,
,,,46.99999839E-3,2.1199999,
,,,47.10000008E-3,2.1599998,
,,,47.19999805E-3,2.1599998,
,,,47.29999974E-3,2.1599998,
,,,47.39999771E-3,2.2000000,
,,,47.49999940E-3,2.2000000,
,,,47.59999737E-3,2.2000000,
,,,47.69999906E-3,2.2400000,
,,,47.79999703E-3,2.2000000,
,,,47.89999872E-3,2.2400000,
,,,48.00000042E-3,2.2800000,
,,,48.09999838E-3,2.2000000,
,,,48.20000008E-3,2.2000000,
,,,48.29999804E-3,2.2000000,
,,,48.39999974E-3,2.2000000,
,,,48.49999771E-3,2.2000000,
,,,48.59999940E-3,2.1599998,
,,,48.69999737E-3,2.1199999,
,,,48.79999906E-3,2.1199999,
,,,48.89999703E-3,2.1199999,
,,,48.99999872E-3,2.0799999,
,,,49.10000041E-3,2.0400000,
,,,49.19999838E-3,2.0000000,
,,,49.30000007E-3,2.0000000,
,,,49.39999804E-3,1.9599999,
,,,49.49999973E-3,1.9200000,
,,,49.59999770E-3,1.8800000,
,,,49.69999939E-3,1.8800000,
,,,49.79999736E-3,1.8399999,
,,,49.89999905E-3,1.8000000,
,,,49.99999702E-3,1.7600000,
,,,50.09999871E-3,1.7600000,
,,,50.20000041E-3,1.7199999,
,,,50.29999837E-3,1.6799999,
,,,50.40000007E-3,1.6799999,
,,,50.49999803E-3,1.6400000,
,,,50.59999973E-3,1.6400000,
,,,50.69999769E-3,1.5999999,
,,,50.79999939E-3,1.5599999,
,,,50.89999735E-3,1.5200000,
,,,50.99999905E-3,1.4800000,
,,,51.09999701E-3,1.4800000,
,,,51.19999871E-3,1.4399999,
,,,51.30000040E-3,1.4399999,
,,,51.39999837E-3,1.4000000,
,,,51.50000006E-3,1.4000000,
,,,51.59999803E-3,1.3600000,
,,,51.69999972E-3,1.3199999,
,,,51.79999769E-3,1.3199999,
,,,51.89999938E-3,1.2800000,
,,,51.99999735E-3,1.2800000,
,,,52.09999904E-3,1.2400000,
,,,52.19999701E-3,1.2400000,
,,,52.29999870E-3,1.1999999,
,,,52.40000039E-3,1.1600000,
,,,52.49999836E-3,1.1999999,
,,,52.60000005E-3,1.1600000,
,,,52.69999802E-3,1.1200000,
,,,52.79999971E-3,1.1200000,
,,,52.89999768E-3,1.1200000,
,,,52.99999937E-3,1.0799999,
,,,53.09999734E-3,1.0799999,
,,,53.19999903E-3,1.0400000,
,,,53.29999700E-3,1.0400000,
,,,53.39999869E-3,1.0400000,
,,,53.50000039E-3,1.0400000,
,,,53.59999835E-3,1.000000,
,,,53.70000005E-3,1.000000,
,,,53.79999802E-3,1.000000,
,,,53.89999971E-3,959.999978542E-3,
,,,53.99999768E-3,439.999997616E-3,
,,,54.09999937E-3,1.0400000,
,,,54.19999734E-3,1.0400000,
,,,54.29999903E-3,1.0400000,
,,,54.39999700E-3,1.0400000,
,,,54.49999869E-3,1.0799999,
,,,54.600000381E-3,1.0799999,
,,,54.699998349E-3,1.1200000,
,,,54.800000042E-3,1.1200000,
,,,54.899998009E-3,1.1200000,
,,,54.999999702E-3,1.1200000,
,,,55.099997669E-3,1.1200000,
,,,55.199999362E-3,1.1200000,
,,,55.299997330E-3,1.1200000,
,,,55.399999022E-3,1.1200000,
,,,55.499996990E-3,1.1600000,
,,,55.599998683E-3,1.1999999,
,,,55.699996650E-3,1.2400000,
,,,55.799998343E-3,1.1999999,
,,,55.900000036E-3,1.2400000,
,,,55.999998003E-3,1.2400000,
,,,56.099999696E-3,1.2400000,
,,,56.199997663E-3,1.2800000,
,,,56.299999356E-3,1.2800000,
,,,56.399997324E-3,1.3199999,
,,,56.499999017E-3,1.3199999,
,,,56.599996984E-3,1.3600000,
,,,56.699998677E-3,1.3600000,
,,,56.799996644E-3,1.4000000,
,,,56.899998337E-3,1.4000000,
,,,57.000000030E-3,1.4399999,
,,,57.099997997E-3,1.4399999,
,,,57.199999690E-3,1.4399999,
,,,57.299997658E-3,1.4800000,
,,,57.399999350E-3,1.5200000,
,,,57.499997318E-3,1.5200000,
,,,57.599999011E-3,1.5599999,
,,,57.699996978E-3,1.5999999,
,,,57.799998671E-3,1.5599999,
,,,57.899996638E-3,1.5999999,
,,,57.999998331E-3,1.6400000,
,,,58.100000024E-3,1.6400000,
,,,58.199997991E-3,1.6799999,
,,,58.299999684E-3,1.6799999,
,,,58.399997652E-3,1.7199999,
,,,58.499999344E-3,1.7199999,
,,,58.599997312E-3,1.7600000,
,,,58.699999005E-3,1.7199999,
,,,58.799996972E-3,1.8000000,
,,,58.899998665E-3,1.8000000,
,,,58.999996632E-3,1.8000000,
,,,59.099998325E-3,1.8000000,
,,,59.200000018E-3,1.8000000,
,,,59.299997985E-3,1.8399999,
,,,59.399999678E-3,1.8000000,
,,,59.499997646E-3,1.8399999,
,,,59.599999338E-3,1.8399999,
,,,59.699997306E-3,1.8399999,
,,,59.799998999E-3,1.8399999,
,,,59.899996966E-3,1.8800000,
,,,59.999998659E-3,1.8800000,
,,,60.099996626E-3,1.8399999,
,,,60.199998319E-3,1.8000000,
,,,60.300000012E-3,1.8399999,
,,,60.399997979E-3,1.8399999,
,,,60.499999672E-3,1.8000000,
,,,60.599997640E-3,1.8000000,
,,,60.699999332E-3,1.8000000,
,,,60.799997300E-3,1.7600000,
,,,60.899998993E-3,1.7199999,
,,,60.999996960E-3,1.7199999,
,,,61.099998653E-3,1.6799999,
,,,61.199996620E-3,1.6799999,
,,,61.299998313E-3,1.6799999,
,,,61.400000006E-3,1.6400000,
,,,61.499997973E-3,1.5999999,
,,,61.599999666E-3,1.5999999,
,,,61.699997634E-3,1.5599999,
,,,61.799999326E-3,1.5599999,
,,,61.899997294E-3,1.5200000,
,,,61.999998987E-3,1.4800000,
,,,62.099996954E-3,1.4800000,
,,,62.199998647E-3,1.4399999,
,,,62.299996614E-3,1.4399999,
,,,62.399998307E-3,1.4399999,
,,,62.500000000E-3,1.3600000,
,,,62.600001693E-3,1.3600000,
,,,62.699995935E-3,1.3199999,
,,,62.799997628E-3,1.3199999,
,,,62.899999321E-3,1.2800000,
,,,63.000001013E-3,1.2400000,
,,,63.099995255E-3,1.2400000,
,,,63.199996948E-3,1.1999999,
,,,63.299998641E-3,1.1999999,
,,,63.400000334E-3,1.1999999,
,,,63.499994576E-3,1.1600000,
,,,63.599996269E-3,1.1200000,
,,,63.699997962E-3,1.1200000,
,,,63.799999654E-3,1.1200000,
,,,63.900001347E-3,1.0799999,
,,,63.999995589E-3,1.0400000,
,,,64.099997282E-3,1.0400000,
,,,64.199998975E-3,1.0400000,
,,,64.300000668E-3,1.000000,
,,,64.399994910E-3,1.000000,
,,,64.499996603E-3,1.000000,
