Data/T2/MinearalOilTrace1T2.csv

Record Length,2500,Points,-9.999999776E-3,119.9999973E-3,
Sample Interval,99.999997474E-6,s,-9.899999946E-3,119.9999973E-3,
Trigger Point,100.0000003,Samples,-9.800000116E-3,59.999998659E-3,
,,,-9.699999355E-3,59.999998659E-3,
,,,-9.599999525E-3,119.9999973E-3,
,,,-9.499999695E-3,59.999998659E-3,
Source,CH1,,-9.399999864E-3,59.999998659E-3,
Vertical Units,Volts,,-9.300000034E-3,119.9999973E-3,
Vertical Scale,1.5000000,,-9.200000204E-3,59.999998659E-3,
Vertical Offset,0,,-9.099999443E-3,119.9999973E-3,
Horizontal Units,s,,-8.999999613E-3,119.9999973E-3,
Horizontal Scale,24.99999937E-3,,-8.899999782E-3,59.999998659E-3,
Pt Fmt,Y,,-8.799999952E-3,59.999998659E-3,
Yzero,-3.20000000,,-8.700000122E-3,59.999998659E-3,
Probe Atten,1.000000,,-8.599999361E-3,179.99999225E-3,
,,,-8.499999531E-3,59.999998659E-3,
Note,TBS 1052B - 12:16:10   09/04/2019,,-8.399999700E-3,119.9999973E-3,
,,,-8.299999870E-3,59.999998659E-3,
,,,-8.200000040E-3,59.999998659E-3,
,,,-8.100000210E-3,59.999998659E-3,
,,,-7.999999449E-3,59.999998659E-3,
,,,-7.899999619E-3,119.9999973E-3,
,,,-7.799999788E-3,59.999998659E-3,
,,,-7.699999958E-3,119.9999973E-3,
,,,-7.599999662E-3,59.999998659E-3,
,,,-7.499999832E-3,59.999998659E-3,
,,,-7.400000002E-3,59.999998659E-3,
,,,-7.29999971E-3,119.9999973E-3,
,,,-7.19999988E-3,59.999998659E-3,
,,,-7.10000005E-3,59.999998659E-3,
,,,-6.99999975E-3,59.999998659E-3,
,,,-6.89999992E-3,59.999998659E-3,
,,,-6.79999962E-3,119.9999973E-3,
,,,-6.69999979E-3,59.999998659E-3,
,,,-6.59999996E-3,119.9999973E-3,
,,,-6.49999967E-3,119.9999973E-3,
,,,-6.39999984E-3,59.999998659E-3,
,,,-6.30000001E-3,119.9999973E-3,
,,,-6.19999971E-3,119.9999973E-3,
,,,-6.09999988E-3,119.9999973E-3,
,,,-6.00000005E-3,119.9999973E-3,
,,,-5.89999976E-3,119.9999973E-3,
,,,-5.79999993E-3,59.999998659E-3,
,,,-5.70000010E-3,119.9999973E-3,
,,,-5.59999980E-3,119.9999973E-3,
,,,-5.49999997E-3,119.9999973E-3,
,,,-5.39999967E-3,59.999998659E-3,
,,,-5.29999984E-3,59.999998659E-3,
,,,-5.20000001E-3,59.999998659E-3,
,,,-5.09999972E-3,119.9999973E-3,
,,,-4.99999989E-3,119.9999973E-3,
,,,-4.90000006E-3,59.999998659E-3,
,,,-4.79999976E-3,119.9999973E-3,
,,,-4.69999993E-3,59.999998659E-3,
,,,-4.60000010E-3,59.999998659E-3,
,,,-4.49999981E-3,59.999998659E-3,
,,,-4.39999998E-3,119.9999973E-3,
,,,-4.30000015E-3,119.9999973E-3,
,,,-4.19999985E-3,59.999998659E-3,
,,,-4.10000002E-3,119.9999973E-3,
,,,-3.99999972E-3,119.9999973E-3,
,,,-3.89999989E-3,119.9999973E-3,
,,,-3.79999983E-3,59.999998659E-3,
,,,-3.70000000E-3,59.999998659E-3,
,,,-3.59999994E-3,59.999998659E-3,
,,,-3.49999988E-3,59.999998659E-3,
,,,-3.40000005E-3,59.999998659E-3,
,,,-3.29999998E-3,59.999998659E-3,
,,,-3.19999992E-3,119.9999973E-3,
,,,-3.09999986E-3,119.9999973E-3,
,,,-3.00000003E-3,119.9999973E-3,
,,,-2.89999996E-3,59.999998659E-3,
,,,-2.79999990E-3,119.9999973E-3,
,,,-2.7000001E-3,59.999998659E-3,
,,,-2.6000000E-3,119.9999973E-3,
,,,-2.4999999E-3,119.9999973E-3,
,,,-2.3999999E-3,59.999998659E-3,
,,,-2.3000001E-3,119.9999973E-3,
,,,-2.2000000E-3,59.999998659E-3,
,,,-2.0999999E-3,59.999998659E-3,
,,,-1.9999999E-3,119.9999973E-3,
,,,-1.9000000E-3,59.999998659E-3,
,,,-1.8000000E-3,59.999998659E-3,
,,,-1.7000000E-3,119.9999973E-3,
,,,-1.6000000E-3,59.999998659E-3,
,,,-1.5000000E-3,59.999998659E-3,
,,,-1.4000000E-3,119.9999973E-3,
,,,-1.3000000E-3,59.999998659E-3,
,,,-1.2000001E-3,59.999998659E-3,
,,,-1.1000000E-3,59.999998659E-3,
,,,-1.0000000E-3,59.999998659E-3,
,,,-899.999984540E-6,119.9999973E-3,
,,,-800.000037998E-6,119.9999973E-3,
,,,-700.000033248E-6,119.9999973E-3,
,,,-600.000028498E-6,59.999998659E-3,
,,,-500.000023749E-6,59.999998659E-3,
,,,-400.00001900E-6,119.9999973E-3,
,,,-300.00001425E-6,119.9999973E-3,
,,,-200.00002405E-6,59.999998659E-3,
,,,-100.0000266E-6,59.999998659E-3,
,,,-29.10383034E-12,10.1399994,
,,,99.999968370E-6,10.0799999,
,,,199.99996584E-6,10.0199995,
,,,299.99995604E-6,9.899999619,
,,,399.99996079E-6,9.599999428,
,,,499.999965541E-6,9.479999542,
,,,599.999970291E-6,9.179999352,
,,,699.999975041E-6,8.880000114,
,,,799.999921583E-6,8.519999504,
,,,899.999926332E-6,8.340000153,
,,,0.0E-3,7.980000019,
,,,1.1000000E-3,7.619999886,
,,,1.1999999E-3,7.37999964,
,,,1.2999999E-3,7.07999992,
,,,1.4000000E-3,6.77999973,
,,,1.4999999E-3,6.42000008,
,,,1.6000000E-3,6.23999977,
,,,1.6999999E-3,5.94000006,
,,,1.8000000E-3,5.69999981,
,,,1.8999999E-3,5.40000010,
,,,1.9999999E-3,5.15999985,
,,,2.0999999E-3,4.92000008,
,,,2.2000000E-3,4.73999977,
,,,2.2999998E-3,4.44000006,
,,,2.3999999E-3,4.25999975,
,,,2.4999999E-3,4.01999998,
,,,2.6000000E-3,4.07999992,
,,,2.6999998E-3,4.38000011,
,,,2.79999990E-3,4.50000000,
,,,2.89999996E-3,4.67999983,
,,,2.99999979E-3,4.92000008,
,,,3.09999986E-3,5.15999985,
,,,3.19999992E-3,5.33999968,
,,,3.29999998E-3,5.57999992,
,,,3.39999981E-3,5.75999975,
,,,3.49999988E-3,6.00000000,
,,,3.59999994E-3,6.29999971,
,,,3.69999977E-3,6.48000002,
,,,3.79999983E-3,6.77999973,
,,,3.89999989E-3,7.01999998,
,,,3.99999972E-3,7.25999975,
,,,4.10000002E-3,7.500000000,
,,,4.19999985E-3,7.799999714,
,,,4.29999968E-3,8.039999962,
,,,4.39999998E-3,8.279999733,
,,,4.49999981E-3,8.460000038,
,,,4.59999964E-3,8.639999390,
,,,4.69999993E-3,8.819999695,
,,,4.79999976E-3,8.939999580,
,,,4.90000006E-3,9.059999466,
,,,4.99999989E-3,9.119999886,
,,,5.09999972E-3,9.179999352,
,,,5.20000001E-3,9.179999352,
,,,5.29999984E-3,9.000000000,
,,,5.39999967E-3,8.939999580,
,,,5.49999997E-3,8.760000229,
,,,5.59999980E-3,8.579999924,
,,,5.69999963E-3,8.399999619,
,,,5.79999993E-3,8.099999428,
,,,5.89999976E-3,7.859999657,
,,,6.00000005E-3,7.619999886,
,,,6.09999988E-3,7.37999964,
,,,6.19999971E-3,7.13999987,
,,,6.30000001E-3,6.83999968,
,,,6.39999984E-3,6.59999990,
,,,6.49999967E-3,6.35999966,
,,,6.59999996E-3,6.05999994,
,,,6.69999979E-3,5.75999975,
,,,6.79999962E-3,5.57999992,
,,,6.89999992E-3,5.27999973,
,,,6.99999975E-3,5.03999996,
,,,7.09999958E-3,4.79999971,
,,,7.19999988E-3,4.67999983,
,,,7.29999971E-3,4.38000011,
,,,7.400000002E-3,4.13999987,
,,,7.499999832E-3,3.95999980,
,,,7.599999662E-3,3.72000003,
,,,7.699999958E-3,3.59999990,
,,,7.799999788E-3,3.53999996,
,,,7.899999619E-3,3.83999991,
,,,7.999999449E-3,3.95999980,
,,,8.100000210E-3,4.13999987,
,,,8.200000040E-3,4.38000011,
,,,8.299999870E-3,4.55999994,
,,,8.399999700E-3,4.73999977,
,,,8.499999531E-3,4.98000002,
,,,8.599999361E-3,5.09999990,
,,,8.700000122E-3,5.40000010,
,,,8.799999952E-3,5.51999998,
,,,8.899999782E-3,5.75999975,
,,,8.999999613E-3,6.11999989,
,,,9.099999443E-3,6.29999971,
,,,9.199999273E-3,6.48000002,
,,,9.300000034E-3,6.77999973,
,,,9.399999864E-3,6.89999962,
,,,9.499999695E-3,7.13999987,
,,,9.599999525E-3,7.37999964,
,,,9.699999355E-3,7.559999943,
,,,9.800000116E-3,7.679999828,
,,,9.899999946E-3,7.859999657,
,,,9.999999776E-3,7.980000019,
,,,10.0999996E-3,8.039999962,
,,,10.1999994E-3,8.159999847,
,,,10.2999993E-3,8.159999847,
,,,10.4000000E-3,8.099999428,
,,,10.4999999E-3,8.039999962,
,,,10.5999997E-3,7.919999599,
,,,10.6999995E-3,7.799999714,
,,,10.7999993E-3,7.679999828,
,,,10.9000001E-3,7.500000000,
,,,10.9999999E-3,7.25999975,
,,,11.0999998E-3,7.01999998,
,,,11.1999996E-3,6.77999973,
,,,11.2999994E-3,6.59999990,
,,,11.3999993E-3,6.35999966,
,,,11.5000000E-3,6.05999994,
,,,11.5999999E-3,5.87999964,
,,,11.6999997E-3,5.57999992,
,,,11.7999995E-3,5.33999968,
,,,11.8999993E-3,5.15999985,
,,,12.0000001E-3,4.98000002,
,,,12.0999999E-3,4.67999983,
,,,12.1999998E-3,4.44000006,
,,,12.2999996E-3,4.25999975,
,,,12.3999994E-3,4.07999992,
,,,12.4999993E-3,3.83999991,
,,,12.6000000E-3,3.59999990,
,,,12.6999998E-3,3.53999996,
,,,12.7999997E-3,3.29999995,
,,,12.8999995E-3,3.17999983,
,,,12.9999993E-3,3.17999983,
,,,13.1000001E-3,3.29999995,
,,,13.1999999E-3,3.48000002,
,,,13.2999998E-3,3.65999985,
,,,13.3999996E-3,3.83999991,
,,,13.4999994E-3,4.01999998,
,,,13.5999992E-3,4.19999981,
,,,13.7000000E-3,4.38000011,
,,,13.7999998E-3,4.55999994,
,,,13.8999997E-3,4.79999971,
,,,13.9999995E-3,4.98000002,
,,,14.0999993E-3,5.15999985,
,,,14.1999992E-3,5.33999968,
,,,14.2999999E-3,5.57999992,
,,,14.3999998E-3,5.81999969,
,,,14.4999996E-3,6.11999989,
,,,14.5999994E-3,6.23999977,
,,,14.6999992E-3,6.42000008,
,,,14.8000000E-3,6.59999990,
,,,14.8999998E-3,6.77999973,
,,,14.9999997E-3,6.96000004,
,,,15.0999995E-3,7.07999992,
,,,15.1999993E-3,7.13999987,
,,,15.2999992E-3,7.19999981,
,,,15.3999999E-3,7.25999975,
,,,15.4999997E-3,7.37999964,
,,,15.5999996E-3,7.37999964,
,,,15.6999994E-3,7.19999981,
,,,15.7999992E-3,7.13999987,
,,,15.8999991E-3,7.01999998,
,,,15.9999989E-3,6.89999962,
,,,16.0999987E-3,6.77999973,
,,,16.2000004E-3,6.59999990,
,,,16.3000003E-3,6.42000008,
,,,16.4000001E-3,6.17999983,
,,,16.4999999E-3,5.94000006,
,,,16.5999997E-3,5.69999981,
,,,16.6999996E-3,5.51999998,
,,,16.7999994E-3,5.27999973,
,,,16.8999992E-3,5.09999990,
,,,16.9999991E-3,4.92000008,
,,,17.0999989E-3,4.61999989,
,,,17.1999987E-3,4.38000011,
,,,17.3000004E-3,4.19999981,
,,,17.4000002E-3,4.01999998,
,,,17.5000001E-3,3.83999991,
,,,17.5999999E-3,3.65999985,
,,,17.6999997E-3,3.48000002,
,,,17.7999996E-3,3.29999995,
,,,17.8999994E-3,3.11999989,
,,,17.9999992E-3,3.00000000,
,,,18.0999991E-3,2.87999988,
,,,18.1999989E-3,2.93999982,
,,,18.2999987E-3,3.00000000,
,,,18.4000004E-3,3.17999983,
,,,18.5000002E-3,3.24000001,
,,,18.6000001E-3,3.48000002,
,,,18.6999999E-3,3.59999990,
,,,18.7999997E-3,3.72000003,
,,,18.8999996E-3,3.95999980,
,,,18.9999994E-3,4.07999992,
,,,19.0999992E-3,4.31999969,
,,,19.1999990E-3,4.50000000,
,,,19.2999989E-3,4.67999983,
,,,19.3999987E-3,4.85999966,
,,,19.5000004E-3,5.09999990,
,,,19.6000002E-3,5.21999979,
,,,19.7000001E-3,5.40000010,
,,,19.7999999E-3,5.63999987,
,,,19.8999997E-3,5.75999975,
,,,19.9999996E-3,5.94000006,
,,,20.09999938E-3,6.11999989,
,,,20.19999921E-3,6.23999977,
,,,20.29999904E-3,6.35999966,
,,,20.39999887E-3,6.48000002,
,,,20.49999870E-3,6.53999996,
,,,20.59999853E-3,6.59999990,
,,,20.70000023E-3,6.65999985,
,,,20.80000006E-3,6.59999990,
,,,20.89999989E-3,6.53999996,
,,,20.99999972E-3,6.48000002,
,,,21.09999955E-3,6.35999966,
,,,21.19999938E-3,6.29999971,
,,,21.29999921E-3,6.05999994,
,,,21.39999904E-3,5.87999964,
,,,21.49999887E-3,5.69999981,
,,,21.59999870E-3,5.57999992,
,,,21.69999853E-3,5.33999968,
,,,21.80000022E-3,5.09999990,
,,,21.90000005E-3,4.98000002,
,,,21.99999988E-3,4.67999983,
,,,22.09999971E-3,4.50000000,
,,,22.19999954E-3,4.25999975,
,,,22.29999937E-3,4.13999987,
,,,22.39999920E-3,3.95999980,
,,,22.49999903E-3,3.72000003,
,,,22.59999886E-3,3.53999996,
,,,22.69999869E-3,3.41999984,
,,,22.79999852E-3,3.17999983,
,,,22.90000021E-3,3.00000000,
,,,23.00000004E-3,2.87999988,
,,,23.09999987E-3,2.87999988,
,,,23.19999970E-3,2.7000000,
,,,23.29999954E-3,2.5799999,
,,,23.39999937E-3,2.5200000,
,,,23.49999920E-3,2.7000000,
,,,23.59999903E-3,2.81999993,
,,,23.69999886E-3,2.93999982,
,,,23.79999869E-3,3.00000000,
,,,23.89999852E-3,3.17999983,
,,,24.00000021E-3,3.35999990,
,,,24.10000004E-3,3.48000002,
,,,24.19999987E-3,3.65999985,
,,,24.29999970E-3,3.83999991,
,,,24.39999953E-3,3.95999980,
,,,24.49999936E-3,4.13999987,
,,,24.59999919E-3,4.38000011,
,,,24.69999902E-3,4.55999994,
,,,24.79999885E-3,4.73999977,
,,,24.89999868E-3,4.85999966,
,,,24.99999851E-3,5.09999990,
,,,25.10000020E-3,5.27999973,
,,,25.20000003E-3,5.40000010,
,,,25.29999986E-3,5.57999992,
,,,25.39999969E-3,5.63999987,
,,,25.49999952E-3,5.81999969,
,,,25.59999935E-3,5.94000006,
,,,25.69999918E-3,5.94000006,
,,,25.79999901E-3,6.00000000,
,,,25.89999884E-3,6.05999994,
,,,25.99999867E-3,5.94000006,
,,,26.09999850E-3,5.94000006,
,,,26.20000020E-3,5.94000006,
,,,26.30000003E-3,5.75999975,
,,,26.39999986E-3,5.63999987,
,,,26.49999969E-3,5.51999998,
,,,26.59999952E-3,5.40000010,
,,,26.69999935E-3,5.15999985,
,,,26.79999918E-3,5.03999996,
,,,26.89999901E-3,4.85999966,
,,,26.99999884E-3,4.67999983,
,,,27.09999867E-3,4.50000000,
,,,27.19999850E-3,4.31999969,
,,,27.30000019E-3,4.07999992,
,,,27.40000002E-3,3.83999991,
,,,27.49999985E-3,3.72000003,
,,,27.59999968E-3,3.59999990,
,,,27.69999951E-3,3.35999990,
,,,27.79999934E-3,3.24000001,
,,,27.89999917E-3,3.11999989,
,,,27.99999900E-3,2.93999982,
,,,28.09999883E-3,2.75999999,
,,,28.19999866E-3,2.7000000,
,,,28.29999849E-3,2.5200000,
,,,28.40000018E-3,2.3999999,
,,,28.50000001E-3,2.2800000,
,,,28.59999985E-3,2.2800000,
,,,28.69999968E-3,2.4600000,
,,,28.79999951E-3,2.5799999,
,,,28.89999934E-3,2.6399999,
,,,28.99999917E-3,2.75999999,
,,,29.09999900E-3,2.93999982,
,,,29.19999883E-3,3.05999994,
,,,29.29999866E-3,3.17999983,
,,,29.39999849E-3,3.29999995,
,,,29.49999832E-3,3.48000002,
,,,29.60000001E-3,3.59999990,
,,,29.69999984E-3,3.72000003,
,,,29.79999967E-3,3.95999980,
,,,29.89999950E-3,4.13999987,
,,,29.99999933E-3,4.31999969,
,,,30.09999916E-3,4.44000006,
,,,30.19999899E-3,4.67999983,
,,,30.29999882E-3,4.73999977,
,,,30.39999865E-3,4.85999966,
,,,30.49999848E-3,5.03999996,
,,,30.59999831E-3,5.15999985,
,,,30.70000000E-3,5.27999973,
,,,30.79999983E-3,5.33999968,
,,,30.89999966E-3,5.40000010,
,,,30.99999949E-3,5.46000004,
,,,31.09999932E-3,5.51999998,
,,,31.19999915E-3,5.46000004,
,,,31.30000085E-3,5.40000010,
,,,31.39999881E-3,5.33999968,
,,,31.50000051E-3,5.27999973,
,,,31.59999847E-3,5.09999990,
,,,31.70000017E-3,4.98000002,
,,,31.79999813E-3,4.85999966,
,,,31.89999983E-3,4.67999983,
,,,31.99999779E-3,4.55999994,
,,,32.09999949E-3,4.31999969,
,,,32.19999745E-3,4.19999981,
,,,32.29999915E-3,3.95999980,
,,,32.40000084E-3,3.89999986,
,,,32.49999881E-3,3.59999990,
,,,32.60000050E-3,3.53999996,
,,,32.69999847E-3,3.35999990,
,,,32.80000016E-3,3.11999989,
,,,32.89999813E-3,3.00000000,
,,,32.99999982E-3,2.93999982,
,,,33.09999779E-3,2.75999999,
,,,33.19999948E-3,2.6399999,
,,,33.29999745E-3,2.4600000,
,,,33.39999914E-3,2.3399999,
,,,33.50000083E-3,2.2800000,
,,,33.59999880E-3,2.2200000,
,,,33.70000049E-3,2.0400000,
,,,33.79999846E-3,2.0400000,
,,,33.90000015E-3,2.0999999,
,,,33.99999812E-3,2.2200000,
,,,34.09999982E-3,2.3399999,
,,,34.19999778E-3,2.4600000,
,,,34.29999948E-3,2.5799999,
,,,34.39999744E-3,2.7000000,
,,,34.49999914E-3,2.87999988,
,,,34.60000083E-3,2.93999982,
,,,34.69999880E-3,3.11999989,
,,,34.80000049E-3,3.24000001,
,,,34.89999846E-3,3.41999984,
,,,35.00000015E-3,3.53999996,
,,,35.09999812E-3,3.65999985,
,,,35.19999981E-3,3.83999991,
,,,35.29999778E-3,4.01999998,
,,,35.39999947E-3,4.13999987,
,,,35.49999744E-3,4.25999975,
,,,35.59999913E-3,4.44000006,
,,,35.70000082E-3,4.55999994,
,,,35.79999879E-3,4.67999983,
,,,35.90000048E-3,4.79999971,
,,,35.99999845E-3,4.85999966,
,,,36.10000014E-3,4.85999966,
,,,36.19999811E-3,4.98000002,
,,,36.29999980E-3,4.98000002,
,,,36.39999777E-3,4.92000008,
,,,36.49999946E-3,4.85999966,
,,,36.59999743E-3,4.85999966,
,,,36.69999912E-3,4.73999977,
,,,36.80000082E-3,4.67999983,
,,,36.89999878E-3,4.55999994,
,,,37.00000048E-3,4.38000011,
,,,37.09999844E-3,4.25999975,
,,,37.20000014E-3,4.07999992,
,,,37.29999810E-3,3.95999980,
,,,37.39999980E-3,3.83999991,
,,,37.49999776E-3,3.65999985,
,,,37.59999946E-3,3.53999996,
,,,37.69999743E-3,3.29999995,
,,,37.79999912E-3,3.24000001,
,,,37.90000081E-3,3.00000000,
,,,37.99999878E-3,2.87999988,
,,,38.10000047E-3,2.81999993,
,,,38.19999844E-3,2.7000000,
,,,38.30000013E-3,2.4600000,
,,,38.39999810E-3,2.4600000,
,,,38.49999979E-3,2.2800000,
,,,38.59999776E-3,2.2800000,
,,,38.69999945E-3,2.1599998,
,,,38.79999742E-3,1.9799999,
,,,38.89999911E-3,1.9200000,
,,,39.00000080E-3,1.9200000,
,,,39.09999877E-3,2.0999999,
,,,39.20000046E-3,2.0999999,
,,,39.29999843E-3,2.1599998,
,,,39.40000013E-3,2.3399999,
,,,39.49999809E-3,2.3399999,
,,,39.59999979E-3,2.4600000,
,,,39.69999775E-3,2.5799999,
,,,39.79999945E-3,2.7000000,
,,,39.89999741E-3,2.87999988,
,,,39.99999911E-3,3.00000000,
,,,40.10000080E-3,3.11999989,
,,,40.19999877E-3,3.24000001,
,,,40.30000046E-3,3.35999990,
,,,40.39999843E-3,3.53999996,
,,,40.50000012E-3,3.59999990,
,,,40.59999809E-3,3.77999997,
,,,40.69999978E-3,3.89999986,
,,,40.79999775E-3,4.01999998,
,,,40.89999944E-3,4.13999987,
,,,40.99999741E-3,4.25999975,
,,,41.09999910E-3,4.38000011,
,,,41.19999707E-3,4.44000006,
,,,41.29999876E-3,4.44000006,
,,,41.40000045E-3,4.50000000,
,,,41.49999842E-3,4.50000000,
,,,41.60000011E-3,4.55999994,
,,,41.69999808E-3,4.50000000,
,,,41.79999977E-3,4.31999969,
,,,41.89999774E-3,4.38000011,
,,,41.99999943E-3,4.25999975,
,,,42.09999740E-3,4.13999987,
,,,42.19999909E-3,3.95999980,
,,,42.29999706E-3,3.83999991,
,,,42.39999875E-3,3.72000003,
,,,42.50000045E-3,3.59999990,
,,,42.59999841E-3,3.41999984,
,,,42.70000011E-3,3.29999995,
,,,42.79999807E-3,3.17999983,
,,,42.89999977E-3,3.05999994,
,,,42.99999774E-3,2.87999988,
,,,43.09999943E-3,2.7000000,
,,,43.19999740E-3,2.5799999,
,,,43.29999909E-3,2.4600000,
,,,43.39999706E-3,2.3399999,
,,,43.49999875E-3,2.2800000,
,,,43.60000044E-3,2.1599998,
,,,43.69999841E-3,2.0999999,
,,,43.80000010E-3,1.9799999,
,,,43.89999807E-3,1.8600000,
,,,43.99999976E-3,1.8000000,
,,,44.09999773E-3,1.6200000,
,,,44.19999942E-3,1.6799999,
,,,44.29999739E-3,1.8000000,
,,,44.39999908E-3,1.8600000,
,,,44.49999705E-3,1.9200000,
,,,44.59999874E-3,2.0400000,
,,,44.70000044E-3,2.0999999,
,,,44.79999840E-3,2.2200000,
,,,44.90000010E-3,2.2800000,
,,,44.99999806E-3,2.3999999,
,,,45.09999976E-3,2.5799999,
,,,45.19999772E-3,2.6399999,
,,,45.29999942E-3,2.75999999,
,,,45.39999738E-3,2.93999982,
,,,45.49999908E-3,3.05999994,
,,,45.59999704E-3,3.11999989,
,,,45.69999874E-3,3.29999995,
,,,45.80000043E-3,3.41999984,
,,,45.89999840E-3,3.53999996,
,,,46.00000009E-3,3.65999985,
,,,46.09999806E-3,3.72000003,
,,,46.19999975E-3,3.83999991,
,,,46.29999772E-3,3.95999980,
,,,46.39999941E-3,4.01999998,
,,,46.49999738E-3,4.07999992,
,,,46.59999907E-3,4.07999992,
,,,46.69999704E-3,4.07999992,
,,,46.79999873E-3,4.07999992,
,,,46.90000042E-3,4.13999987,
,,,46.99999839E-3,3.95999980,
,,,47.10000008E-3,3.95999980,
,,,47.19999805E-3,3.83999991,
,,,47.29999974E-3,3.83999991,
,,,47.39999771E-3,3.59999990,
,,,47.49999940E-3,3.53999996,
,,,47.59999737E-3,3.41999984,
,,,47.69999906E-3,3.29999995,
,,,47.79999703E-3,3.17999983,
,,,47.89999872E-3,3.00000000,
,,,48.00000042E-3,2.93999982,
,,,48.09999838E-3,2.87999988,
,,,48.20000008E-3,2.7000000,
,,,48.29999804E-3,2.5799999,
,,,48.39999974E-3,2.4600000,
,,,48.49999771E-3,2.3399999,
,,,48.59999940E-3,2.2800000,
,,,48.69999737E-3,2.1599998,
,,,48.79999906E-3,2.0400000,
,,,48.89999703E-3,1.9200000,
,,,48.99999872E-3,1.8600000,
,,,49.10000041E-3,1.7400000,
,,,49.19999838E-3,1.6799999,
,,,49.30000007E-3,1.6200000,
,,,49.39999804E-3,1.6200000,
,,,49.49999973E-3,1.6799999,
,,,49.59999770E-3,1.7400000,
,,,49.69999939E-3,1.8600000,
,,,49.79999736E-3,1.8600000,
,,,49.89999905E-3,2.0400000,
,,,49.99999702E-3,2.0999999,
,,,50.09999871E-3,2.2200000,
,,,50.20000041E-3,2.2200000,
,,,50.29999837E-3,2.3399999,
,,,50.40000007E-3,2.4600000,
,,,50.49999803E-3,2.5799999,
,,,50.59999973E-3,2.7000000,
,,,50.69999769E-3,2.81999993,
,,,50.79999939E-3,2.87999988,
,,,50.89999735E-3,3.00000000,
,,,50.99999905E-3,3.17999983,
,,,51.09999701E-3,3.24000001,
,,,51.19999871E-3,3.35999990,
,,,51.30000040E-3,3.41999984,
,,,51.39999837E-3,3.59999990,
,,,51.50000006E-3,3.65999985,
,,,51.59999803E-3,3.65999985,
,,,51.69999972E-3,3.65999985,
,,,51.79999769E-3,3.72000003,
,,,51.89999938E-3,3.72000003,
,,,51.99999735E-3,3.72000003,
,,,52.09999904E-3,3.72000003,
,,,52.19999701E-3,3.65999985,
,,,52.29999870E-3,3.59999990,
,,,52.40000039E-3,3.53999996,
,,,52.49999836E-3,3.41999984,
,,,52.60000005E-3,3.35999990,
,,,52.69999802E-3,3.17999983,
,,,52.79999971E-3,3.11999989,
,,,52.89999768E-3,3.00000000,
,,,52.99999937E-3,2.87999988,
,,,53.09999734E-3,2.75999999,
,,,53.19999903E-3,2.5799999,
,,,53.29999700E-3,2.4600000,
,,,53.39999869E-3,2.3399999,
,,,53.50000039E-3,2.2800000,
,,,53.59999835E-3,2.1599998,
,,,53.70000005E-3,2.0400000,
,,,53.79999802E-3,2.0400000,
,,,53.89999971E-3,1.8600000,
,,,53.99999768E-3,1.8000000,
,,,54.09999937E-3,1.7400000,
,,,54.19999734E-3,1.6200000,
,,,54.29999903E-3,1.5599999,
,,,54.39999700E-3,1.4399999,
,,,54.49999869E-3,1.4399999,
,,,54.600000381E-3,1.5000000,
,,,54.699998349E-3,1.5000000,
